plan

{

target rectangle x -9.48 z 20.23 rot 0 width 100 height 100
floor		../../../RTRVII/data/settlement_plans/underlays/barbarian_large_city_underlay.CAS ../../../RTRVII/data/settlement_plans/overlays/barbarian_large_city_overlay.CAS
ground_types	barb_city_ground.tga -416 -416 416 416
street_plan	../../../RTRVII/data/settlement_plans/street_plans/barbarian_large_city_pathfinding.CAS

;walls
borders

	{

external_left_link,	352.00,	448.00,	-180.00,	0.00
external_left_link,	416.00,	-320.00,	90.00,	0.00
external_left_link,	-416.00,	384.00,	-90.00,	0.00
external_left_link,	-224.00,	448.00,	180.00,	0.00

external_right_link,	416.00,	384.00,	90.00,	0.00
external_right_link,	352.00,	-384.00,	0.00,	-0.00
external_right_link,	-416.00,	256.00,	-90.00,	0.00
external_right_link,	-352.00,	448.00,	-180.00,	0.00
external_right_link,	96.00,	448.00,	-180.00,	0.00

gateway,	0.00,	-384.00,	0.00,	0.00
gateway,	-64.00,	384.00,	-180.00,	0.00
gateway,	-352.00,	96.00,	-90.00,	0.00
gateway,	416.00,	-96.00,	90.00,	0.00

internal_corner_link,	-352.00,	0.00,	-90.00,	0.00
internal_corner_link,	-160.00,	-320.00,	0.00,	0.00

internal_left_link,	-352.00,	192.00,	-90.00,	0.00
internal_left_link,	32.00,	384.00,	-180.00,	0.00

internal_right_link,	-160.00,	384.00,	-180.00,	0.00

straight,	320.00,	448.00,	-180.00,	0.00
straight,	416.00,	352.00,	90.00,	0.00
straight,	320.00,	-384.00,	0.00,	0.00
straight,	192.00,	-384.00,	0.00,	0.00
straight,	128.00,	-384.00,	0.00,	0.00
straight,	0.00,	384.00,	-180.00,	0.00
straight,	-160.00,	-352.00,	-90.00,	0.00
straight,	-128.00,	-384.00,	0.00,	0.00
straight,	-64.00,	-384.00,	0.00,	0.00
straight,	-256.00,	-320.00,	0.00,	0.00
straight,	-384.00,	-320.00,	0.00,	0.00
straight,	-416.00,	-288.00,	-90.00,	0.00
straight,	-416.00,	-224.00,	-90.00,	0.00
straight,	-416.00,	-96.00,	-90.00,	0.00
straight,	-384.00,	0.00,	180.00,	0.00
straight,	-416.00,	-32.00,	-90.00,	0.00
straight,	-352.00,	32.00,	-90.00,	0.00
straight,	-384.00,	224.00,	-45.00,	0.00
straight,	-416.00,	352.00,	-90.00,	0.00
straight,	-320.00,	448.00,	180.00,	0.00
straight,	-192.00,	416.00,	135.00,	0.00
straight,	-128.00,	384.00,	-180.00,	0.00
straight,	64.00,	416.00,	-135.00,	0.00
straight,	192.00,	448.00,	-180.00,	0.00
straight,	64.00,	-384.00,	0.00,	0.00
straight,	-352.00,	160.00,	-90.00,	0.00
straight,	416.00,	224.00,	90.00,	0.00
straight,	416.00,	96.00,	90.00,	0.00
straight,	416.00,	32.00,	90.00,	0.00
straight,	416.00,	-32.00,	90.00,	0.00
straight,	416.00,	-160.00,	90.00,	0.00
straight,	416.00,	-288.00,	90.00,	0.00
straight,	416.00,	-224.00,	90.00,	0.00
straight,	-192.00,	-320.00,	0.00,	0.00

straight_link,	96.00,	-384.00,	0.00,	0.00
straight_link,	288.00,	-384.00,	0.00,	0.00
straight_link,	224.00,	-384.00,	0.00,	-0.00
straight_link,	-96.00,	-384.00,	0.00,	0.00
straight_link,	-416.00,	-256.00,	-90.00,	0.00
straight_link,	-416.00,	-192.00,	-90.00,	0.00
straight_link,	-416.00,	-128.00,	-90.00,	0.00
straight_link,	-416.00,	-64.00,	-90.00,	0.00
straight_link,	-416.00,	320.00,	-90.00,	0.00
straight_link,	-288.00,	448.00,	180.00,	0.00
straight_link,	160.00,	448.00,	180.00,	0.00
straight_link,	224.00,	448.00,	180.00,	0.00
straight_link,	288.00,	448.00,	180.00,	0.00
straight_link,	-352.00,	-320.00,	0.00,	-0.00
straight_link,	-288.00,	-320.00,	0.00,	0.00
straight_link,	416.00,	192.00,	90.00,	0.00
straight_link,	416.00,	128.00,	90.00,	0.00
straight_link,	416.00,	64.00,	90.00,	0.00
straight_link,	416.00,	256.00,	90.00,	0.00
straight_link,	416.00,	320.00,	90.00,	0.00
straight_link,	416.00,	-256.00,	90.00,	0.00
straight_link,	416.00,	-192.00,	90.00,	0.00
straight_link,	416.00,	0.00,	90.00,	0.00
straight_link,	160.00,	-384.00,	0.00,	-0.00
straight_link,	-224.00,	-320.00,	0.00,	-0.00

tower_external_corner_link,	-160.00,	-384.00,	0.00,	0.00
tower_external_corner_link,	-416.00,	-320.00,	0.00,	0.00
tower_external_corner_link,	-416.00,	0.00,	-90.00,	0.00

tower_straight,	384.00,	416.00,	135.00,	0.00
tower_straight,	384.00,	-352.00,	45.00,	0.00
tower_straight,	256.00,	-384.00,	0.00,	-0.00
tower_straight,	-384.00,	416.00,	-135.00,	0.00
tower_straight,	-416.00,	-160.00,	-90.00,	0.00
tower_straight,	-416.00,	288.00,	-90.00,	0.00
tower_straight,	-256.00,	448.00,	180.00,	0.00
tower_straight,	128.00,	448.00,	180.00,	0.00
tower_straight,	256.00,	448.00,	180.00,	0.00
tower_straight,	-320.00,	-320.00,	0.00,	-0.00
tower_straight,	416.00,	160.00,	90.00,	0.00
tower_straight,	416.00,	288.00,	90.00,	0.00

	}


; ROAD JOINERS

gateway_slot_into_flat_town,	448.00,	-96.00,	0.00,	0.00
gateway_slot_into_flat_town,	-64.00,	416.00,	90.00,	0.00
gateway_slot_into_flat_town,	-384.00,	96.00,	-180.00,	0.00
gateway_slot_into_flat_town,	0.00,	-416.00,	-90.00,	0.00



; COLLISION

dummy_collision_planA,	268.19,	169.69,	170.43,	0
dummy_collision_planA,	-268.30,	-173.98,	-8.55,	0
dummy_collision_planA,	168.68,	84.78,	-98.22,	0
dummy_collision_planA,	-40.15,	-159.86,	-98.22,	0
dummy_collision_planA,	256.84,	-287.93,	79.39,	0
dummy_collision_planA,	96.40,	342.24,	-8.55,	0
dummy_collision_planA,	82.11,	-322.83,	-8.55,	0
dummy_collision_planA,	-276.33,	258.35,	-101.55,	0
dummy_collision_planB,	-272.98,	-258.66,	-2.85,	0
dummy_collision_planB,	-242.57,	324.71,	86.43,	0
dummy_collision_planB,	-82.08,	-240.89,	-179.00,	0
dummy_collision_planB,	93.91,	-275.70,	7.11,	0
dummy_collision_planB,	328.11,	133.65,	-91.62,	0
dummy_collision_planB,	97.08,	243.06,	-180.00,	0
dummy_collision_planB,	-303.88,	-52.42,	-169.50,	0
dummy_collision_planB,	162.71,	-14.75,	90.00,	0
dummy_collision_planC,	191.33,	351.86,	0.00,	0
dummy_collision_planC,	-217.98,	-75.67,	-89.67,	0
dummy_collision_planC,	-356.02,	334.89,	6.80,	0
dummy_collision_planC,	131.93,	-193.34,	-178.93,	0
dummy_collision_planC,	-117.84,	-144.18,	0.00,	0
dummy_collision_planC,	347.43,	251.60,	178.97,	0
dummy_collision_planD,	191.46,	257.66,	0.00,	0
dummy_collision_planD,	-200.60,	-165.14,	-2.23,	0
dummy_collision_planD,	250.53,	82.81,	87.94,	0
dummy_collision_planD,	-297.74,	32.85,	0.00,	0
dummy_collision_planD,	43.65,	-180.72,	87.94,	0
dummy_collision_planD,	-48.36,	-319.07,	87.71,	0
dummy_collision_planD,	-264.77,	381.16,	111.25,	0
dummy_collision_planD,	349.90,	345.58,	178.97,	0
dummy_collision_planE,	361.33,	8.58,	178.97,	0
dummy_collision_planE,	-14.95,	-106.11,	178.97,	0
dummy_collision_planE,	112.48,	292.35,	5.24,	0
dummy_collision_planE,	-146.58,	-83.32,	0.00,	0
dummy_collision_planE,	-299.20,	90.02,	0.00,	0
dummy_collision_planE,	134.62,	-74.79,	178.97,	0
dummy_collision_planE,	99.42,	169.73,	0.00,	0
dummy_collision_planE,	340.22,	75.15,	87.94,	0
dummy_collision_planE,	310.54,	12.67,	-3.50,	0
dummy_collision_planE,	-212.49,	344.63,	176.99,	0
dummy_collision_planE,	-347.49,	259.63,	125.43,	0
dummy_collision_planF,	262.42,	377.63,	178.08,	0
dummy_collision_planF,	-273.89,	179.96,	-93.01,	0
dummy_collision_planF,	50.26,	-115.88,	-5.22,	0
dummy_collision_planF,	251.59,	-216.02,	-1.39,	0
dummy_collision_planF,	-202.02,	-234.85,	0.00,	0
dummy_collision_planF,	158.43,	-312.10,	91.56,	0
dummy_collision_planF,	192.42,	172.98,	-5.22,	0
dummy_collision_planF,	-11.61,	-262.04,	0.00,	0

; SLOTS

slot_112x64_barracks,	-341.49,	-187.19,	-92.90,	-0.00
slot_160x128_market,	293.93,	-90.35,	-180.00,	0.00
slot_160x128_religious,	-186.24,	50.67,	0.00,	0.00
slot_48x32_smith,	-106.54,	-312.57,	90.00,	0.00
slot_48x32_academic,	117.64,	90.28,	-90.00,	0.00
slot_256x192_core_building,	-105.93,	229.65,	0.00,	-0.00
slot_plaza_barbarian_128x128m,	-9.48,	20.23,	0.00,	0.00
slot_112x64_missiles,	340.92,	-235.46,	90.00,	0.00
slot_112x64_equestrian,	267.58,	274.11,	-90.00,	0.00

; BUILDINGS
BI_barn,	-281.79,	34.04,	-179.70,	0.00

BI_cider_house,	-287.02,	6.58,	-145.00,	0.00

BI_menhir,	-284.73,	61.08,	0.00,	0.00

BI_cider_house,	-306.56,	6.55,	0.00,	0.00

BI_oast,	-298.34,	26.89,	-9.09,	0.00

BI_fence_L_shape_wood,	-285.51,	63.47,	-87.03,	0.00
BI_fence_L_shape_wood,	-312.13,	62.07,	2.97,	0.00
BI_fence_L_shape_wood,	-283.03,	3.44,	-177.39,	0.00
BI_fence_L_shape_wood,	-309.67,	2.18,	92.61,	0.00

BI_fence_gate_wood,	-318.12,	45.85,	2.97,	0.00

BI_fence_straight_wood,	-316.48,	25.14,	-2.39,	0.00

BI_houseD,	-316.81,	38.85,	172.37,	0.00

BI_barn,	-48.92,	-303.09,	-91.99,	0.00

BI_cider_house,	-21.69,	-309.41,	-57.29,	0.00

BI_menhir,	-76.06,	-304.95,	87.71,	0.00

BI_cider_house,	-22.44,	-328.93,	87.71,	0.00

BI_oast,	-42.44,	-319.91,	78.62,	0.00

BI_fence_L_shape_wood,	-78.47,	-305.63,	0.68,	0.00
BI_fence_L_shape_wood,	-78.14,	-332.29,	90.68,	0.00
BI_fence_L_shape_wood,	-18.39,	-305.55,	-89.68,	0.00
BI_fence_L_shape_wood,	-18.20,	-332.22,	-179.68,	0.00

BI_fence_gate_wood,	-62.17,	-338.92,	90.68,	0.00

BI_fence_straight_wood,	-41.41,	-338.11,	85.32,	0.00

BI_houseD,	-55.13,	-337.89,	-99.92,	0.00

BI_cider_house,	-244.17,	400.67,	-33.75,	0.00

BI_menhir,	-295.80,	383.05,	111.25,	0.00

BI_cider_house,	-237.06,	382.47,	111.25,	0.00

BI_oast,	-259.00,	382.76,	102.16,	0.00

BI_fence_L_shape_wood,	-297.74,	381.46,	24.21,	0.00
BI_fence_L_shape_wood,	-286.79,	357.16,	114.21,	0.00
BI_fence_L_shape_wood,	-242.69,	405.53,	-66.14,	0.00
BI_fence_L_shape_wood,	-231.86,	381.15,	-156.14,	0.00

BI_fence_gate_wood,	-269.50,	357.46,	114.21,	0.00

BI_fence_straight_wood,	-250.79,	366.49,	108.86,	0.00

BI_houseD,	-263.45,	361.21,	-76.39,	0.00

BI_barn,	-271.66,	395.59,	-68.45,	0.00

BI_fence_straight_wood,	97.20,	183.36,	91.54,	0.00
BI_fence_straight_wood,	119.31,	171.20,	4.50,	0.00

BI_fence_gate_wood,	110.06,	183.47,	90.78,	0.00

BI_fence_L_shape_wood,	86.56,	162.78,	87.90,	0.00

BI_houseD,	83.47,	180.26,	90.52,	0.00

BI_houseC,	116.50,	181.53,	0.00,	0.00

BI_houseA,	109.81,	157.86,	104.18,	0.00
BI_houseA,	123.90,	281.48,	109.43,	0.00

BI_houseC,	128.40,	305.66,	5.24,	0.00

BI_houseD,	95.63,	301.38,	95.77,	0.00

BI_fence_L_shape_wood,	100.31,	284.26,	93.14,	0.00

BI_fence_gate_wood,	121.82,	307.01,	96.02,	0.00

BI_fence_straight_wood,	132.15,	295.63,	9.74,	0.00
BI_fence_straight_wood,	109.02,	305.72,	96.78,	0.00

BI_houseA,	124.45,	-62.74,	-76.85,	0.00

BI_houseC,	117.34,	-86.28,	178.97,	0.00

BI_houseD,	150.38,	-85.61,	-90.51,	0.00

BI_fence_L_shape_wood,	147.60,	-68.07,	-93.13,	0.00

BI_fence_gate_wood,	123.73,	-88.34,	-90.25,	0.00

BI_fence_straight_wood,	114.71,	-75.90,	-176.53,	0.00
BI_fence_straight_wood,	136.60,	-88.45,	-89.49,	0.00

BI_houseA,	352.46,	85.10,	-167.88,	0.00

BI_houseC,	329.05,	92.64,	87.94,	0.00

BI_houseD,	329.12,	59.59,	178.46,	0.00

BI_fence_L_shape_wood,	346.71,	62.05,	175.83,	0.00

BI_fence_gate_wood,	326.87,	86.28,	178.71,	0.00

BI_fence_straight_wood,	339.47,	95.08,	92.44,	0.00
BI_fence_straight_wood,	326.53,	73.42,	179.48,	0.00
BI_fence_straight_wood,	-279.31,	91.49,	4.50,	0.00

BI_fence_L_shape_wood,	-312.06,	83.07,	87.90,	0.00

BI_houseA,	-288.81,	78.15,	104.18,	0.00

BI_houseC,	-282.12,	101.82,	0.00,	0.00

BI_houseD,	-315.15,	100.55,	90.52,	0.00

BI_fence_gate_wood,	-288.55,	103.76,	90.78,	0.00

BI_fence_straight_wood,	-301.42,	103.64,	91.54,	0.00

BI_fence_L_shape_wood,	-159.44,	-90.27,	87.90,	0.00

BI_houseA,	-136.20,	-95.19,	104.18,	0.00

BI_houseC,	-129.51,	-71.52,	0.00,	0.00

BI_houseD,	-162.54,	-72.79,	90.52,	0.00

BI_fence_gate_wood,	-135.94,	-69.58,	90.78,	0.00

BI_fence_straight_wood,	-148.80,	-69.69,	91.54,	0.00
BI_fence_straight_wood,	-126.69,	-81.85,	4.50,	0.00

BI_houseA,	320.18,	0.19,	100.68,	-0.00

BI_houseC,	328.30,	23.40,	-3.50,	-0.00

BI_houseD,	295.25,	24.16,	87.02,	-0.00

BI_fence_gate_wood,	322.00,	25.74,	87.27,	-0.00

BI_fence_straight_wood,	330.48,	12.92,	1.00,	-0.00
BI_fence_straight_wood,	309.15,	26.40,	88.04,	-0.00

BI_fence_L_shape_wood,	297.27,	6.52,	84.39,	-0.00

BI_fence_straight_wood,	-232.43,	344.21,	-178.51,	0.00

BI_fence_L_shape_wood,	-199.28,	350.89,	-95.11,	0.00

BI_houseA,	-222.24,	357.02,	-78.82,	0.00

BI_fence_straight_wood,	-210.98,	330.90,	-91.47,	0.00

BI_fence_gate_wood,	-223.84,	331.46,	-92.23,	0.00

BI_houseD,	-197.11,	333.27,	-92.48,	0.00

BI_houseC,	-230.16,	333.74,	176.99,	0.00

BI_fence_straight_wood,	-360.22,	274.99,	129.93,	0.00

BI_fence_L_shape_wood,	-334.38,	253.18,	-146.67,	0.00

BI_houseA,	-343.85,	274.97,	-130.38,	0.00

BI_houseC,	-367.01,	266.70,	125.43,	0.00

BI_houseD,	-346.83,	240.53,	-144.04,	0.00

BI_fence_straight_wood,	-357.31,	249.92,	-143.03,	0.00

BI_fence_gate_wood,	-364.86,	260.33,	-143.79,	0.00

BI_oast,	209.75,	152.00,	-166.23,	-0.06

BI_fence_straight_wood,	196.77,	152.81,	78.28,	0.00
BI_fence_straight_wood,	219.83,	168.84,	-3.23,	0.00
BI_fence_straight_wood,	191.07,	200.49,	-93.23,	0.00

BI_fence_L_shape_wood,	213.99,	192.54,	-93.23,	0.00
BI_fence_L_shape_wood,	167.40,	195.14,	-3.23,	0.00

BI_fence_straight_wood,	159.45,	172.23,	-3.23,	0.00

BI_barn,	172.89,	154.88,	79.31,	0.00

BI_oast,	243.92,	397.58,	17.07,	-0.06

BI_fence_straight_wood,	234.82,	380.18,	-179.93,	0.00

BI_fence_L_shape_wood,	242.02,	356.86,	90.07,	0.00

BI_fence_straight_wood,	256.92,	397.52,	-98.42,	0.00
BI_fence_straight_wood,	265.35,	350.24,	90.07,	0.00

BI_barn,	280.88,	396.82,	-97.39,	0.00

BI_fence_straight_wood,	295.29,	380.27,	-179.93,	0.00

BI_fence_L_shape_wood,	288.68,	356.94,	-179.93,	0.00

BI_oast,	270.28,	-235.80,	-162.40,	-0.06

BI_fence_straight_wood,	279.21,	-218.32,	0.60,	0.00

BI_fence_L_shape_wood,	271.80,	-195.07,	-89.40,	0.00

BI_fence_straight_wood,	257.28,	-235.86,	82.11,	0.00
BI_fence_straight_wood,	248.41,	-188.67,	-89.40,	0.00

BI_barn,	233.31,	-235.39,	83.14,	0.00

BI_fence_straight_wood,	218.75,	-218.97,	0.60,	0.00

BI_fence_L_shape_wood,	225.15,	-195.58,	0.60,	0.00

BI_oast,	177.21,	-292.41,	-69.44,	-0.06

BI_fence_straight_wood,	159.30,	-284.39,	93.56,	0.00

BI_fence_L_shape_wood,	136.46,	-292.99,	3.56,	0.00

BI_fence_straight_wood,	177.95,	-305.39,	175.06,	0.00
BI_fence_straight_wood,	131.27,	-316.68,	3.56,	0.00

BI_barn,	178.71,	-329.35,	176.09,	0.00

BI_fence_straight_wood,	163.06,	-344.74,	93.56,	0.00

BI_fence_L_shape_wood,	139.37,	-339.56,	93.56,	0.00

BI_oast,	-182.85,	-254.17,	-161.01,	-0.06

BI_fence_straight_wood,	-195.85,	-254.54,	83.50,	0.00
BI_fence_straight_wood,	-174.35,	-236.48,	1.99,	0.00

BI_fence_L_shape_wood,	-182.32,	-213.41,	-88.01,	0.00

BI_fence_straight_wood,	-205.86,	-207.58,	-88.01,	0.00
BI_fence_straight_wood,	-234.78,	-238.59,	1.99,	0.00

BI_barn,	-219.82,	-254.65,	84.53,	0.00

BI_fence_L_shape_wood,	-228.95,	-215.05,	1.99,	0.00

BI_oast,	7.56,	-281.36,	-161.01,	-0.06

BI_fence_straight_wood,	-5.44,	-281.74,	83.50,	0.00
BI_fence_straight_wood,	16.06,	-263.67,	1.99,	0.00

BI_fence_L_shape_wood,	8.09,	-240.60,	-88.01,	0.00

BI_fence_straight_wood,	-15.45,	-234.77,	-88.01,	0.00
BI_fence_straight_wood,	-44.37,	-265.79,	1.99,	0.00

BI_barn,	-29.41,	-281.85,	84.53,	0.00

BI_fence_L_shape_wood,	-38.54,	-242.25,	1.99,	0.00

BI_fence_straight_wood,	-293.88,	174.83,	-9.51,	0.00

BI_oast,	-294.19,	161.83,	105.98,	-0.06

BI_fence_straight_wood,	-276.97,	152.41,	-91.02,	0.00

BI_barn,	-292.74,	198.77,	-8.48,	0.00

BI_fence_straight_wood,	-275.91,	212.87,	-91.02,	0.00
BI_fence_straight_wood,	-246.46,	182.36,	178.98,	0.00

BI_fence_L_shape_wood,	-253.52,	159.16,	178.98,	0.00
BI_fence_L_shape_wood,	-252.71,	205.81,	-91.02,	0.00

BI_houseB,	65.67,	330.35,	-8.55,	0.00

BI_barn,	102.38,	373.00,	96.99,	0.00

BI_house_half_wood,	71.83,	363.85,	-8.75,	0.00

BI_cider_house,	126.25,	327.13,	-178.55,	0.00

BI_oast,	126.70,	360.17,	91.45,	0.00

BI_fence_straight,	77.90,	315.69,	85.09,	0.00

BI_fence_L_shape,	129.39,	322.31,	-177.42,	0.00

BI_fence_gate,	136.28,	338.36,	-8.55,	0.00

BI_house_half_wood,	102.03,	318.62,	91.07,	0.00

BI_fence_straight,	136.15,	351.22,	-178.55,	0.00

BI_fence_L_shape,	128.91,	374.39,	-88.55,	0.00

BI_fence_gate,	81.66,	376.41,	91.45,	0.00
BI_fence_gate,	65.34,	347.62,	-8.55,	0.00

BI_houseA,	170.39,	351.29,	-7.25,	0.00

BI_houseB,	209.75,	351.24,	-179.12,	0.00

BI_barn,	181.67,	312.00,	90.54,	0.00

BI_house_half_wood,	209.29,	319.77,	-0.21,	0.00

BI_houseC,	166.91,	329.98,	0.00,	0.00

BI_fence_gate,	169.55,	336.37,	-3.12,	0.00

BI_fence_straight,	165.74,	317.64,	6.49,	0.00
BI_fence_straight,	213.77,	334.97,	-2.39,	0.00

BI_fence_gate,	201.61,	307.89,	91.19,	0.00

BI_house_half_wood,	208.31,	385.67,	-0.21,	0.00

BI_houseB,	183.75,	392.50,	-70.84,	0.00

BI_fence_straight,	172.35,	374.22,	-2.39,	0.00

BI_fence_gate,	200.71,	395.81,	100.39,	0.00
BI_fence_gate,	210.69,	368.42,	-0.98,	0.00

BI_houseD,	172.38,	263.67,	172.37,	0.00

BI_cider_house,	182.64,	231.37,	0.00,	0.00

BI_menhir,	204.46,	285.90,	0.00,	0.00

BI_oast,	190.85,	251.71,	-9.09,	0.00

BI_fence_straight_wood,	172.71,	249.95,	-2.39,	0.00

BI_fence_L_shape_wood,	203.68,	288.28,	-87.03,	0.00

BI_fence_gate_wood,	171.07,	270.67,	2.97,	0.00

BI_cider_house,	202.17,	231.39,	-145.00,	0.00

BI_barn,	207.40,	258.85,	-179.70,	0.00

BI_fence_L_shape_wood,	177.06,	286.88,	2.97,	0.00
BI_fence_L_shape_wood,	206.16,	228.26,	-177.39,	0.00
BI_fence_L_shape_wood,	179.52,	227.00,	92.61,	0.00

BI_cider_house,	153.75,	54.85,	91.78,	0.00

BI_fence_L_shape,	148.94,	51.69,	92.91,	0.00

BI_fence_gate,	165.04,	44.89,	-98.22,	0.00

BI_house_half_wood,	145.10,	79.02,	1.40,	0.00

BI_fence_gate,	173.88,	115.88,	-98.22,	0.00

BI_fence_straight,	177.89,	45.09,	91.78,	0.00
BI_fence_straight,	142.03,	103.14,	-4.58,	0.00

BI_oast,	186.79,	54.59,	1.78,	0.00

BI_house_half_wood,	190.15,	109.48,	-98.43,	0.00

BI_houseB,	156.62,	115.45,	-98.22,	0.00

BI_barn,	199.48,	78.98,	7.32,	0.00

BI_fence_L_shape,	201.02,	52.47,	-178.22,	0.00

BI_fence_gate,	202.76,	99.72,	1.78,	0.00

BI_houseC,	-240.00,	-51.38,	-89.67,	0.00

BI_fence_gate,	-233.60,	-53.98,	-92.80,	0.00

BI_fence_straight,	-252.34,	-50.28,	-83.18,	0.00
BI_fence_straight,	-195.73,	-56.57,	-92.06,	0.00

BI_barn,	-257.90,	-66.24,	0.86,	0.00

BI_houseA,	-218.67,	-54.73,	-96.92,	0.00

BI_houseB,	-218.50,	-94.09,	91.20,	0.00

BI_house_half_wood,	-249.97,	-93.81,	-89.88,	0.00

BI_fence_straight,	-234.74,	-98.21,	-92.06,	0.00

BI_fence_gate,	-261.89,	-86.21,	1.52,	0.00

BI_house_half_wood,	-184.07,	-92.46,	-89.88,	0.00

BI_houseB,	-177.39,	-67.87,	-160.51,	0.00

BI_fence_gate,	-173.98,	-84.81,	10.72,	0.00
BI_fence_gate,	-201.31,	-94.93,	-90.65,	0.00

BI_houseD,	-219.43,	-158.39,	170.14,	0.00

BI_fence_straight_wood,	-219.63,	-172.11,	-4.62,	0.00

BI_fence_gate_wood,	-220.46,	-151.35,	0.74,	0.00

BI_fence_L_shape_wood,	-213.73,	-195.31,	90.38,	0.00
BI_fence_L_shape_wood,	-187.05,	-195.09,	-179.62,	0.00
BI_fence_L_shape_wood,	-213.85,	-135.38,	0.74,	0.00

BI_cider_house,	-190.92,	-191.80,	-147.23,	0.00

BI_fence_L_shape_wood,	-187.20,	-135.02,	-89.26,	0.00

BI_oast,	-201.44,	-171.06,	-11.32,	0.00

BI_cider_house,	-210.44,	-191.07,	-2.23,	0.00

BI_menhir,	-186.51,	-137.43,	-2.23,	0.00

BI_barn,	-184.62,	-164.57,	178.08,	0.00

BI_cider_house,	238.62,	185.33,	0.43,	0.00

BI_fence_L_shape,	235.57,	190.21,	1.56,	0.00

BI_fence_gate,	228.39,	174.28,	170.43,	0.00

BI_house_half_wood,	262.99,	193.41,	-89.95,	0.00

BI_fence_gate,	299.16,	163.75,	170.43,	0.00

BI_fence_straight,	228.29,	161.42,	0.43,	0.00
BI_fence_straight,	287.17,	195.90,	-95.94,	0.00

BI_oast,	237.58,	152.31,	-89.57,	0.00

BI_house_half_wood,	292.37,	147.64,	170.22,	0.00

BI_houseB,	299.13,	181.03,	170.43,	0.00

BI_barn,	261.66,	139.04,	-84.04,	0.00

BI_fence_L_shape,	235.12,	138.13,	90.43,	0.00

BI_fence_gate,	282.32,	135.26,	-89.57,	0.00

BI_houseC,	372.24,	273.04,	178.97,	0.00

BI_fence_gate,	369.49,	266.70,	175.85,	0.00

BI_fence_straight,	373.63,	285.35,	-174.54,	0.00
BI_fence_straight,	366.00,	228.90,	176.58,	0.00

BI_barn,	357.81,	291.28,	-90.49,	0.00

BI_houseA,	368.38,	251.80,	171.72,	0.00

BI_houseB,	329.03,	252.55,	-0.15,	0.00

BI_house_half_wood,	330.05,	284.01,	178.76,	0.00

BI_fence_straight,	325.30,	268.89,	176.58,	0.00

BI_fence_gate,	337.94,	295.75,	-89.84,	0.00

BI_house_half_wood,	329.85,	218.10,	178.76,	0.00

BI_houseB,	354.27,	210.83,	108.13,	0.00

BI_fence_gate,	337.26,	207.83,	-80.64,	0.00
BI_fence_gate,	327.78,	235.39,	177.99,	0.00

BI_houseD,	368.86,	339.23,	-8.66,	0.00

BI_fence_straight_wood,	368.78,	352.95,	176.58,	0.00

BI_fence_gate_wood,	370.05,	332.21,	-178.06,	0.00

BI_fence_L_shape_wood,	362.39,	376.02,	-88.42,	0.00
BI_fence_L_shape_wood,	335.73,	375.24,	1.58,	0.00
BI_fence_L_shape_wood,	363.77,	316.10,	-178.06,	0.00

BI_cider_house,	339.66,	372.03,	33.97,	0.00

BI_fence_L_shape_wood,	337.13,	315.18,	91.94,	0.00

BI_oast,	350.61,	351.52,	169.88,	0.00

BI_cider_house,	359.19,	371.71,	178.97,	0.00

BI_menhir,	336.39,	317.58,	178.97,	0.00

BI_barn,	333.94,	344.67,	-0.72,	0.00

BI_cider_house,	273.02,	-258.64,	-90.61,	0.00

BI_fence_L_shape,	277.95,	-255.68,	-89.48,	0.00

BI_fence_gate,	262.15,	-248.22,	79.39,	0.00

BI_house_half_wood,	280.65,	-283.16,	179.01,	0.00

BI_fence_gate,	250.35,	-318.78,	79.39,	0.00

BI_fence_straight,	249.30,	-247.89,	-90.61,	0.00
BI_fence_straight,	282.71,	-307.37,	173.03,	0.00

BI_oast,	240.02,	-257.01,	179.39,	0.00

BI_house_half_wood,	234.37,	-311.70,	79.18,	0.00

BI_houseB,	267.62,	-319.07,	79.39,	0.00

BI_barn,	226.32,	-280.84,	-175.07,	0.00

BI_fence_L_shape,	225.88,	-254.29,	-0.61,	0.00

BI_fence_gate,	222.17,	-301.43,	179.39,	0.00

BI_houseC,	155.94,	-171.01,	-178.93,	0.00

BI_fence_gate,	153.42,	-177.44,	177.94,	0.00

BI_fence_straight,	156.87,	-158.65,	-172.44,	0.00
BI_fence_straight,	151.32,	-215.34,	178.68,	0.00

BI_barn,	140.84,	-153.30,	-88.39,	0.00

BI_houseA,	152.86,	-192.37,	173.82,	0.00

BI_houseB,	113.50,	-193.06,	1.94,	0.00

BI_house_half_wood,	113.37,	-161.59,	-179.14,	0.00

BI_fence_straight,	109.18,	-176.87,	178.68,	0.00

BI_fence_gate,	120.83,	-149.57,	-87.74,	0.00

BI_house_half_wood,	115.58,	-227.46,	-179.14,	0.00

BI_houseB,	140.26,	-233.83,	110.23,	0.00

BI_fence_gate,	123.36,	-237.45,	-78.54,	0.00
BI_fence_gate,	112.88,	-210.25,	-179.91,	0.00

BI_cider_house,	-238.45,	-189.09,	-178.55,	0.00

BI_fence_straight,	-286.80,	-200.53,	85.09,	0.00

BI_fence_L_shape,	-235.32,	-193.91,	-177.42,	0.00

BI_fence_gate,	-228.43,	-177.86,	-8.55,	0.00

BI_house_half_wood,	-262.68,	-197.60,	91.07,	0.00

BI_fence_gate,	-299.37,	-168.60,	-8.55,	0.00

BI_fence_L_shape,	-235.80,	-141.83,	-88.55,	0.00

BI_fence_straight,	-228.56,	-165.00,	-178.55,	0.00

BI_oast,	-238.01,	-156.05,	91.45,	0.00

BI_house_half_wood,	-292.87,	-152.38,	-8.75,	0.00

BI_houseB,	-299.03,	-185.87,	-8.55,	0.00

BI_barn,	-262.32,	-143.22,	96.99,	0.00

BI_fence_gate,	-283.04,	-139.82,	91.45,	0.00

BI_houseC,	-377.68,	310.27,	6.80,	0.00

BI_fence_gate,	-375.81,	316.93,	3.68,	0.00

BI_fence_straight,	-377.37,	297.88,	13.29,	0.00
BI_fence_straight,	-377.51,	354.85,	4.41,	0.00

BI_barn,	-360.89,	294.16,	97.34,	0.00

BI_houseA,	-376.74,	331.84,	-0.45,	0.00

BI_houseB,	-337.65,	336.45,	-172.32,	0.00

BI_house_half_wood,	-334.39,	305.15,	6.59,	0.00

BI_fence_straight,	-331.74,	320.77,	4.41,	0.00

BI_fence_gate,	-340.60,	292.44,	97.99,	0.00

BI_house_half_wood,	-343.16,	370.48,	6.59,	0.00

BI_houseB,	-368.35,	374.34,	-64.04,	0.00

BI_fence_gate,	-351.90,	379.64,	107.19,	0.00
BI_fence_gate,	-338.76,	353.62,	5.82,	0.00

BI_cider_house,	111.96,	-337.94,	-178.55,	0.00

BI_fence_straight,	63.61,	-349.38,	85.09,	0.00

BI_fence_L_shape,	115.09,	-342.76,	-177.42,	0.00

BI_fence_gate,	121.98,	-326.70,	-8.55,	0.00

BI_house_half_wood,	87.73,	-346.45,	91.07,	0.00

BI_fence_gate,	51.04,	-317.45,	-8.55,	0.00

BI_fence_L_shape,	114.61,	-290.68,	-88.55,	0.00

BI_fence_straight,	121.85,	-313.85,	-178.55,	0.00

BI_oast,	112.40,	-304.90,	91.45,	0.00

BI_house_half_wood,	57.54,	-301.22,	-8.75,	0.00

BI_houseB,	51.38,	-334.72,	-8.55,	0.00

BI_barn,	88.09,	-292.07,	96.99,	0.00

BI_fence_gate,	67.37,	-288.66,	91.45,	0.00

BI_houseC,	-142.26,	-166.07,	0.00,	0.00

BI_fence_gate,	-139.62,	-159.68,	-3.12,	0.00

BI_fence_straight,	-143.43,	-178.41,	6.49,	0.00
BI_fence_straight,	-136.82,	-121.82,	-2.39,	0.00

BI_barn,	-127.50,	-184.05,	90.54,	0.00

BI_houseA,	-138.78,	-144.76,	-7.25,	0.00

BI_houseB,	-99.42,	-144.81,	-179.12,	0.00

BI_house_half_wood,	-99.88,	-176.28,	-0.21,	0.00

BI_fence_straight,	-95.40,	-161.08,	-2.39,	0.00

BI_fence_gate,	-107.56,	-188.16,	91.19,	0.00

BI_house_half_wood,	-100.86,	-110.37,	-0.21,	0.00

BI_houseB,	-125.42,	-103.55,	-70.84,	0.00

BI_fence_gate,	-108.46,	-100.24,	100.39,	0.00
BI_fence_gate,	-98.48,	-127.63,	-0.98,	0.00

BI_cider_house,	-292.99,	229.34,	88.45,	0.00

BI_fence_straight,	-301.88,	278.22,	-7.92,	0.00

BI_fence_L_shape,	-297.97,	226.46,	89.58,	0.00

BI_fence_gate,	-282.30,	218.73,	-101.55,	0.00

BI_house_half_wood,	-300.22,	253.97,	-1.93,	0.00

BI_fence_gate,	-269.33,	289.09,	-101.55,	0.00

BI_fence_L_shape,	-245.93,	224.21,	178.45,	0.00

BI_fence_straight,	-269.45,	218.19,	88.45,	0.00

BI_oast,	-260.02,	227.16,	-1.55,	0.00

BI_house_half_wood,	-253.47,	281.75,	-101.76,	0.00

BI_houseB,	-286.60,	289.66,	-101.55,	0.00

BI_barn,	-245.93,	250.77,	3.98,	0.00

BI_fence_gate,	-241.44,	271.28,	-1.55,	0.00

BI_houseD,	243.84,	63.96,	-99.70,	0.00

BI_fence_straight_wood,	257.55,	63.80,	85.55,	0.00

BI_fence_gate_wood,	236.80,	62.90,	90.91,	0.00

BI_fence_L_shape_wood,	280.74,	69.77,	-179.45,	0.00
BI_fence_L_shape_wood,	280.44,	96.44,	-89.45,	0.00
BI_fence_L_shape_wood,	220.80,	69.47,	90.91,	0.00

BI_cider_house,	277.16,	92.57,	-57.06,	0.00

BI_fence_L_shape_wood,	220.37,	96.12,	0.91,	0.00

BI_oast,	256.45,	81.99,	78.85,	0.00

BI_cider_house,	276.49,	73.04,	87.94,	0.00

BI_menhir,	222.77,	96.82,	87.94,	0.00

BI_barn,	249.91,	98.78,	-91.76,	0.00

BI_houseA,	147.02,	2.50,	173.52,	0.00

BI_houseB,	161.38,	-26.66,	178.45,	0.00

BI_houseC,	150.63,	-44.62,	90.00,	0.00

BI_houseD,	161.95,	10.81,	2.52,	0.00

BI_menhir,	159.34,	-45.46,	90.00,	0.00

BI_fence_straight,	164.21,	-2.65,	0.00,	0.00

BI_fence_L_shape,	123.83,	-8.06,	-10.00,	0.00

BI_fence_gate,	154.90,	12.76,	90.00,	0.00

BI_fence_L_shape,	119.19,	-34.32,	80.00,	0.00

BI_fence_straight,	140.93,	-45.43,	-100.00,	0.00

BI_houseA,	79.83,	227.37,	-96.48,	0.00

BI_houseB,	108.99,	241.73,	-91.55,	0.00

BI_houseC,	126.95,	230.99,	-180.00,	0.00

BI_houseD,	71.52,	242.30,	92.52,	0.00

BI_menhir,	127.78,	239.70,	-180.00,	0.00

BI_fence_straight,	84.97,	244.56,	90.00,	0.00

BI_fence_L_shape,	90.38,	204.19,	80.00,	0.00

BI_fence_gate,	69.57,	235.25,	-180.00,	0.00

BI_fence_L_shape,	116.65,	199.54,	170.00,	0.00

BI_fence_straight,	127.76,	221.28,	-10.00,	0.00

BI_houseA,	343.31,	115.96,	-8.09,	0.00

BI_houseB,	329.78,	145.52,	-3.17,	0.00

BI_houseC,	341.03,	163.17,	-91.62,	0.00

BI_houseD,	328.15,	108.08,	-179.09,	0.00

BI_menhir,	332.34,	164.25,	-91.62,	0.00

BI_fence_straight,	326.27,	121.59,	178.38,	0.00

BI_fence_L_shape,	366.78,	125.86,	168.38,	0.00

BI_fence_gate,	335.14,	105.93,	-91.62,	0.00

BI_fence_L_shape,	372.16,	151.99,	-101.62,	0.00

BI_fence_straight,	350.75,	163.71,	78.38,	0.00

BI_houseA,	109.09,	-257.99,	90.63,	0.00

BI_houseB,	81.93,	-275.85,	95.56,	0.00

BI_houseC,	62.77,	-267.41,	7.11,	0.00

BI_houseD,	119.18,	-271.78,	-80.36,	0.00

BI_menhir,	63.03,	-276.16,	7.11,	0.00

BI_fence_straight,	106.11,	-275.68,	-82.89,	0.00

BI_fence_L_shape,	95.74,	-236.29,	-92.89,	0.00

BI_fence_gate,	120.25,	-264.54,	7.11,	0.00

BI_fence_L_shape,	69.10,	-234.94,	-2.89,	0.00

BI_fence_straight,	60.77,	-257.88,	177.11,	0.00

BI_houseA,	-254.97,	-243.84,	80.67,	0.00

BI_houseB,	-284.81,	-256.73,	85.60,	0.00

BI_houseC,	-302.22,	-245.11,	-2.85,	0.00

BI_houseD,	-247.42,	-259.17,	-90.33,	0.00

BI_menhir,	-303.48,	-253.77,	-2.85,	0.00

BI_fence_straight,	-260.97,	-260.76,	-92.85,	0.00

BI_fence_L_shape,	-264.36,	-220.16,	-102.85,	0.00

BI_fence_gate,	-245.11,	-252.22,	-2.85,	0.00

BI_fence_L_shape,	-290.37,	-214.22,	-12.85,	0.00

BI_fence_straight,	-302.54,	-235.37,	167.15,	0.00
BI_fence_straight,	-51.02,	-262.14,	-9.00,	0.00

BI_fence_L_shape,	-61.75,	-284.06,	171.00,	0.00

BI_houseA,	-99.05,	-256.88,	-95.48,	0.00

BI_houseB,	-70.15,	-242.02,	-90.55,	0.00

BI_houseC,	-52.00,	-252.44,	-179.00,	0.00

BI_houseD,	-107.62,	-242.10,	93.53,	0.00

BI_menhir,	-51.32,	-243.72,	-179.00,	0.00

BI_fence_straight,	-94.21,	-239.60,	91.00,	0.00

BI_fence_L_shape,	-88.09,	-279.88,	81.00,	0.00

BI_fence_gate,	-109.45,	-249.19,	-179.00,	0.00

BI_houseA,	-317.98,	-70.99,	-85.98,	0.00

BI_houseB,	-291.93,	-51.56,	-81.06,	0.00

BI_houseC,	-272.30,	-58.85,	-169.50,	0.00

BI_houseD,	-328.87,	-57.82,	103.02,	0.00

BI_menhir,	-273.07,	-50.13,	-169.50,	0.00

BI_fence_straight,	-316.05,	-53.15,	100.50,	0.00

BI_fence_gate,	-329.51,	-65.11,	-169.50,	0.00

BI_fence_straight,	-269.74,	-68.25,	0.50,	0.00

BI_fence_L_shape,	-303.38,	-91.86,	90.50,	0.00
BI_fence_L_shape,	-276.70,	-91.64,	-179.50,	0.00

BI_fence_straight,	-240.32,	336.70,	-3.57,	0.00

BI_fence_L_shape,	-280.96,	333.81,	-13.57,	0.00

BI_menhir,	-247.84,	294.28,	86.43,	0.00

BI_houseC,	-256.48,	295.65,	86.43,	0.00

BI_fence_gate,	-248.66,	352.66,	86.43,	0.00

BI_fence_straight,	-266.22,	295.45,	-103.57,	0.00

BI_houseB,	-244.64,	312.91,	174.88,	0.00

BI_houseA,	-257.16,	342.91,	169.95,	0.00

BI_houseD,	-241.74,	350.27,	-1.04,	0.00

BI_fence_L_shape,	-287.22,	307.89,	76.43,	0.00

BI_houseC,	344.04,	-2.91,	178.97,	-0.00

BI_fence_gate_wood,	350.44,	-4.97,	-90.25,	-0.00

BI_fence_straight_wood,	341.41,	7.47,	-176.53,	-0.00
BI_fence_straight_wood,	363.30,	-5.08,	-89.49,	-0.00

BI_houseD,	377.09,	-2.24,	-90.51,	-0.00

BI_houseA,	351.16,	20.63,	-76.85,	-0.00

BI_fence_L_shape_wood,	374.31,	15.30,	-93.13,	-0.00

BI_barn,	165.64,	-257.48,	23.15,	0.00

BI_oast,	243.12,	-337.04,	-9.11,	0.00

BI_menhir,	126.52,	-117.65,	90.00,	0.00

BI_barn,	372.81,	65.72,	0.94,	0.00

BI_oast,	67.59,	-136.86,	-166.23,	-0.06

BI_fence_straight_wood,	54.61,	-136.05,	78.28,	0.00
BI_fence_straight_wood,	77.66,	-120.02,	-3.23,	0.00
BI_fence_straight_wood,	17.29,	-116.63,	-3.23,	0.00

BI_barn,	30.73,	-133.98,	79.31,	0.00
BI_barn,	43.03,	-164.74,	-91.76,	0.00

BI_menhir,	15.90,	-166.71,	87.94,	0.00

BI_fence_gate,	-34.95,	-128.76,	-98.22,	0.00

BI_cider_house,	69.61,	-190.48,	87.94,	0.00

BI_oast,	49.58,	-181.53,	78.85,	0.00

BI_house_half_wood,	-18.68,	-135.17,	-98.43,	0.00

BI_fence_L_shape_wood,	13.49,	-167.40,	0.91,	0.00

BI_cider_house,	70.29,	-170.95,	-57.06,	0.00

BI_fence_L_shape_wood,	13.93,	-194.05,	90.91,	0.00

BI_fence_gate,	-6.07,	-144.92,	1.78,	0.00

BI_fence_L_shape_wood,	73.57,	-167.08,	-89.45,	0.00
BI_fence_L_shape_wood,	73.86,	-193.75,	-179.45,	0.00

BI_fence_gate_wood,	29.92,	-200.62,	90.91,	0.00

BI_fence_straight_wood,	50.68,	-199.72,	85.55,	0.00

BI_houseD,	36.96,	-199.56,	-99.70,	0.00

BI_fence_L_shape,	-7.81,	-192.18,	-178.22,	0.00

BI_barn,	-9.35,	-165.67,	7.32,	0.00

BI_houseB,	-52.21,	-129.20,	-98.22,	0.00

BI_oast,	-22.04,	-190.05,	1.78,	0.00

BI_fence_straight,	-66.80,	-141.51,	-4.58,	0.00

BI_house_half_wood,	-63.73,	-165.62,	1.40,	0.00

BI_cider_house,	-55.08,	-189.79,	91.78,	0.00

BI_fence_L_shape_wood,	25.24,	-93.72,	-3.23,	0.00
BI_fence_L_shape_wood,	71.82,	-96.32,	-93.23,	0.00

BI_fence_straight_wood,	48.91,	-88.37,	-93.23,	0.00

BI_fence_L_shape_wood,	-1.97,	-99.39,	-93.13,	0.00

BI_fence_straight_wood,	-12.98,	-119.77,	-89.49,	0.00
BI_fence_straight_wood,	-34.87,	-107.22,	-176.53,	0.00

BI_houseC,	-32.24,	-117.60,	178.97,	0.00

BI_fence_gate_wood,	-25.84,	-119.66,	-90.25,	0.00

BI_houseA,	-25.12,	-94.06,	-76.85,	0.00

BI_houseD,	0.81,	-116.93,	-90.51,	0.00

BI_barn,	-58.54,	-98.22,	-1.41,	0.00
BI_barn,	-107.22,	-73.12,	-1.41,	0.00
BI_barn,	-142.51,	-53.00,	88.14,	0.00
BI_barn,	63.85,	292.38,	-179.70,	0.00
BI_barn,	103.84,	392.82,	-83.85,	0.00
BI_barn,	32.97,	152.11,	-179.70,	0.00

BI_houseD,	-373.76,	-95.37,	90.52,	0.00

BI_house_half_wood,	-346.20,	-63.47,	-162.86,	0.00

BI_houseC,	-321.04,	-84.65,	-89.67,	0.00

BI_barn,	-313.70,	154.12,	-179.70,	0.00

BI_houseB,	-373.56,	-275.46,	-117.09,	0.00

BI_houseA,	-316.45,	-269.55,	63.01,	0.00

BI_barn,	11.92,	-316.78,	-19.85,	0.00

BI_houseD,	-171.02,	-273.10,	93.53,	0.00

BI_fence_L_shape,	-59.84,	-192.75,	92.58,	0.00

BI_fence_gate,	-43.78,	-199.64,	-98.55,	0.00

BI_fence_straight,	-30.93,	-199.51,	91.45,	0.00

tree_A,	84.46,	-330.76,	0.00,	0.00

tree_C,	159.16,	155.38,	0.00,	0.00

tree_E,	233.02,	89.20,	0.00,	0.00

tree_F,	-72.97,	-270.35,	0.00,	0.00
tree_F,	163.66,	-297.78,	0.00,	0.00

tree_C,	168.75,	-134.12,	0.00,	0.00

tree_E,	128.84,	-23.88,	0.00,	0.00

tree_A,	105.46,	-270.57,	0.00,	0.00

tree_C,	356.81,	107.33,	0.00,	0.00

tree_E,	248.92,	-193.76,	0.00,	0.00

tree_F,	297.54,	9.81,	177.53,	-0.00

tree_E,	279.51,	167.88,	0.00,	0.00

tree_A,	365.16,	143.86,	0.00,	0.00

tree_C,	255.51,	18.33,	0.00,	0.00

tree_E,	74.47,	-246.62,	0.00,	0.00

tree_A,	135.02,	-165.97,	0.00,	0.00

tree_F,	112.13,	-51.11,	0.00,	0.00

tree_C,	-247.39,	-225.82,	0.00,	0.00

tree_E,	-352.61,	-281.64,	0.00,	0.00

tree_A,	88.61,	168.56,	0.00,	0.00
tree_A,	-285.00,	-69.40,	0.00,	0.00

tree_F,	-281.32,	-88.59,	0.00,	0.00

tree_A,	-109.96,	-274.22,	0.00,	0.00

tree_E,	-121.20,	-160.77,	0.00,	0.00

tree_F,	-136.90,	-79.14,	0.00,	0.00

tree_A,	-297.42,	61.73,	0.00,	0.00

tree_E,	-270.55,	142.64,	0.00,	0.00

tree_A,	-299.91,	340.65,	0.00,	0.00

tree_F,	-344.54,	396.95,	0.00,	0.00

tree_A,	79.66,	305.59,	0.00,	0.00

tree_E,	-280.38,	318.25,	0.00,	0.00

tree_A,	-177.28,	347.74,	0.00,	0.00

tree_F,	-374.43,	275.98,	0.00,	0.00

tree_A,	349.30,	266.03,	0.00,	0.00

tree_E,	183.62,	353.01,	0.00,	0.00

tree_A,	102.75,	349.06,	0.00,	0.00

tree_F,	126.66,	393.05,	0.00,	0.00

tree_A,	281.42,	27.73,	0.00,	0.00

tree_E,	136.95,	-254.34,	0.00,	0.00

tree_A,	139.85,	-272.48,	0.00,	0.00
tree_A,	-186.03,	-220.93,	0.00,	0.00

tree_E,	143.87,	-337.09,	0.00,	0.00

tree_A,	258.22,	-276.47,	0.00,	0.00

tree_E,	188.37,	189.51,	0.00,	0.00

tree_A,	-65.01,	-323.68,	0.00,	0.00
tree_A,	166.62,	70.90,	0.00,	0.00

tree_F,	-28.37,	-245.25,	0.00,	0.00

tree_A,	74.96,	-236.03,	0.00,	0.00
tree_A,	-311.99,	54.64,	0.00,	0.00

tree_F,	-297.57,	42.64,	0.00,	0.00

tree_A,	-285.06,	138.64,	0.00,	0.00

tree_E,	-279.51,	268.79,	0.00,	0.00

tree_A,	-257.75,	-161.13,	0.00,	0.00

tree_F,	126.98,	57.03,	0.00,	0.00

tree_A,	-283.53,	259.99,	0.00,	0.00
tree_A,	101.99,	210.25,	0.00,	0.00

tree_F,	-284.45,	367.91,	0.00,	0.00

tree_A,	268.36,	363.61,	0.00,	0.00

tree_E,	350.57,	363.97,	0.00,	0.00

tree_F,	272.76,	1.23,	0.00,	0.00
tree_F,	273.11,	17.75,	117.72,	0.00

tree_A,	255.08,	5.54,	117.72,	0.00
tree_A,	238.81,	14.02,	117.72,	0.00
tree_A,	-218.56,	341.11,	0.00,	0.00

tree_F,	207.40,	-194.77,	0.00,	0.00
tree_F,	374.19,	12.00,	0.00,	-0.00

tree_E,	233.04,	19.42,	-66.13,	0.00

tree_F,	248.71,	9.86,	-66.13,	0.00

tree_A,	231.76,	6.68,	176.15,	0.00

tree_F,	214.24,	8.45,	-66.13,	0.00
tree_F,	214.44,	20.34,	176.15,	0.00

tree_A,	205.23,	-3.48,	176.15,	0.00
tree_A,	214.59,	57.57,	176.15,	0.00
tree_A,	211.55,	107.66,	176.15,	0.00

tree_E,	185.04,	71.55,	117.72,	0.00

tree_A,	157.40,	97.99,	-66.13,	0.00

tree_F,	116.21,	44.35,	0.00,	0.00

tree_E,	118.05,	16.67,	0.00,	0.00

tree_F,	130.41,	10.05,	0.00,	0.00

tree_E,	169.24,	-98.87,	176.15,	0.00

tree_F,	174.75,	16.65,	-66.13,	0.00
tree_F,	205.77,	-83.15,	0.00,	0.00
tree_F,	202.58,	-62.58,	117.72,	0.00
tree_F,	203.03,	-41.74,	0.00,	0.00
tree_F,	201.10,	-153.09,	117.72,	0.00
tree_F,	201.80,	-106.14,	0.00,	0.00

tree_E,	203.43,	-127.35,	-66.13,	0.00

tree_F,	384.49,	-77.68,	0.00,	0.00
tree_F,	381.30,	-57.12,	117.72,	0.00
tree_F,	381.75,	-36.28,	0.00,	0.00
tree_F,	379.83,	-147.63,	117.72,	0.00

tree_E,	380.52,	-100.68,	0.00,	0.00

tree_A,	382.15,	-121.89,	-66.13,	0.00

tree_E,	226.99,	-324.69,	0.00,	0.00

tree_A,	222.07,	-344.35,	0.00,	0.00
tree_A,	163.94,	-229.80,	0.00,	0.00

tree_E,	255.90,	-241.16,	0.00,	0.00
tree_E,	211.92,	-247.22,	0.00,	0.00

tree_A,	314.15,	-315.54,	0.00,	0.00

tree_E,	293.75,	-351.99,	0.00,	0.00
tree_E,	349.17,	-333.21,	0.00,	0.00
tree_E,	325.09,	-339.83,	-66.13,	0.00

tree_F,	337.98,	-348.94,	-15.20,	0.00

tree_E,	379.83,	-283.23,	117.72,	0.00

tree_A,	380.52,	-236.27,	0.00,	0.00
tree_A,	382.15,	-257.48,	-66.13,	0.00

tree_F,	384.49,	-213.28,	0.00,	0.00
tree_F,	381.30,	-191.45,	117.72,	0.00
tree_F,	111.27,	-117.78,	176.15,	0.00
tree_F,	167.46,	-75.54,	117.72,	0.00
tree_F,	174.59,	-5.98,	-105.08,	0.00
tree_F,	367.73,	90.40,	117.72,	0.00

tree_E,	376.04,	100.38,	0.00,	0.00

tree_F,	366.80,	199.58,	136.10,	0.00
tree_F,	375.98,	208.50,	-106.18,	0.00

tree_E,	376.92,	200.66,	77.67,	0.00

tree_A,	375.54,	168.98,	117.72,	0.00

tree_F,	358.31,	170.04,	-66.13,	0.00
tree_F,	231.87,	50.58,	0.00,	0.00
tree_F,	58.52,	15.57,	0.00,	0.00
tree_F,	35.18,	110.15,	176.15,	0.00
tree_F,	-82.52,	86.52,	-66.13,	0.00
tree_F,	-110.00,	-42.16,	176.15,	0.00

tree_E,	81.18,	55.45,	117.72,	0.00

tree_F,	58.94,	93.25,	-66.13,	0.00

tree_A,	-79.13,	-2.38,	117.72,	0.00

tree_F,	-84.90,	3.01,	-66.13,	0.00
tree_F,	83.65,	-39.58,	0.00,	0.00

tree_E,	-43.35,	112.39,	176.15,	0.00

tree_F,	-142.96,	-201.33,	0.00,	0.00

tree_E,	-27.73,	-53.73,	0.00,	0.00

tree_F,	17.00,	-133.48,	0.00,	0.00

tree_E,	26.14,	-174.32,	0.00,	0.00
tree_E,	81.54,	-79.72,	0.00,	0.00
tree_E,	-42.21,	-173.74,	0.00,	0.00

tree_A,	-23.79,	-173.09,	117.72,	0.00

tree_E,	2.72,	-136.99,	176.15,	0.00

tree_F,	-51.43,	-146.66,	-66.13,	0.00
tree_F,	14.54,	-187.08,	176.15,	0.00
tree_F,	55.38,	-51.93,	117.72,	0.00
tree_F,	-69.82,	-80.65,	0.00,	0.00
tree_F,	54.85,	353.60,	0.00,	0.00
tree_F,	-308.66,	366.97,	176.15,	0.00
tree_F,	70.04,	211.10,	0.00,	0.00
tree_F,	333.02,	394.21,	117.72,	0.00

tree_E,	47.97,	138.72,	117.72,	0.00

tree_F,	-210.69,	375.47,	-66.13,	0.00

tree_E,	-318.13,	181.42,	117.72,	0.00

tree_F,	-316.94,	205.80,	-66.13,	0.00

tree_E,	-304.33,	305.16,	176.15,	0.00

tree_A,	37.74,	178.43,	-66.13,	0.00

tree_F,	88.42,	110.74,	0.00,	0.00
tree_F,	-243.77,	139.85,	176.15,	0.00

tree_E,	31.24,	230.10,	117.72,	0.00

tree_F,	-378.53,	-83.81,	-66.13,	0.00

tree_E,	-355.20,	-251.45,	-66.13,	0.00

tree_F,	-382.24,	-239.40,	117.72,	0.00
tree_F,	-323.97,	-98.55,	176.15,	0.00

tree_A,	-348.83,	-255.77,	117.72,	0.00

tree_F,	-276.63,	-223.19,	117.72,	0.00

tree_E,	-217.99,	-228.03,	-66.13,	0.00

tree_F,	-282.54,	-131.32,	0.00,	0.00

tree_E,	-363.23,	-99.88,	0.00,	0.00

tree_F,	-364.43,	-58.04,	176.15,	0.00

tree_A,	-378.27,	-127.23,	176.15,	0.00

tree_E,	3.03,	-347.19,	176.15,	0.00

tree_F,	25.82,	-293.54,	117.72,	0.00
tree_F,	-125.02,	-344.94,	-66.13,	0.00

tree_E,	-129.40,	-288.51,	-66.13,	0.00

tree_F,	-159.22,	-276.50,	117.72,	0.00
tree_F,	-144.13,	-229.02,	0.00,	0.00

tree_E,	26.78,	-229.06,	117.72,	0.00

tree_F,	-97.57,	-200.41,	0.00,	0.00
tree_F,	-41.87,	341.11,	90.35,	0.00
tree_F,	-64.89,	344.93,	90.35,	0.00

tree_A,	-20.67,	342.87,	24.22,	0.00

tree_E,	5.09,	340.70,	-151.93,	0.00

tree_F,	-86.70,	341.61,	-151.93,	0.00



}				
				
				
				
				
				
				
				
				
				
				
				
				
				
				
				
				
				
				
				
				
				
				
				
				
				
				
				
				
				
				
				
				
				
				
				
				
				
				
				
				
				
				
				
				
				
				
				
				
				
				
				
				
				
				
				
				
				
				
				
				
				
				
				
				
				
				
				
				
				
				
				
				
				
				
				
				
				
				
				
				
				
				
				
				
				
				
				
				
				
				
				
				
				
				
				
				
				
				
				
				
				
				
				
				
				
				
				
				
				
				
				
				
				
				
				
				
				
				
				
				
				
				
				
				
				
				
				
				
				
				
				
				
				
				
				
				
				
				
				
				
				
				
				
				
				
				
				
				
				
				
				
				
				
				
				
				
				
				
				
				
				
				
				
				
				
				
				
				
				
				
				
				
				
				
				
				
				
				
				
				
				
				
				
				
				
				
				
				
				
				
				
				
				
				
				
				
				
				
				
				
				
				
				
				
				
				
				
				
				
				
				
				
				
				
				
				
				
				
				
				
				
				
				
				
				
				
				
				
				
				
				
				
				
				
				
				
				
				
				
				
				
				
				
				
				
				
				
				
				
				
				
				
				
				
				
				
				
				
				
				
				
				
				
				
				
				
				
				
				
				
				
				
				
				
				
				
				
				
				
				
				
				
				
				
				
				
				
				
				
				
				
				
				
				
				
				
				
				
				
				
				
				
				
				
				
				
				
				
				
				
				
				
				
				
				
				
				
				
				
				
				
				
				
				
				
				
				
				
				
				
				
				
				
				
				
				
				
				
				
				
				
				
				
				
				
				
				
				
				
				
				
				
				
				
				
				
				
				
				
				
				
				
				
				
				
				
				
				
				
				
				
				
				
				
				
				
				
				
				
				
				
				
				
				
				
				
				
				
				
				
				
				
				
				
				
				
				
				
				
				
				
				
				
				
				
				
				
				
				
				
				
				
				
				
				
				
				
				
				
				
				
				
				
				
				
				
				
				
				
				
				
				
				
				
				
				
				
				
				
				
				
				
				
				
				
				
				
				
				
				
				
				
				
				
				
				
				
				
				
				
				
				
				
				
				
				
				
				
				
				
				
				
				
				
				
				


	}