plan

{
	floor		../../../RTRVII/Data/settlement_plans/underlays/rem_pink_marker_underlay.cas 

	ground_types	ground_no_grass.tga	-64,	-64,	64,	64

	borders	border_limits_64m_diameter.CAS
;				x,		y,		rot,	z,
barb_ruins,			0,	        0,	        0,	0

}
