pool Africa_Numidia
	regions Tingitania Mauretania Masaesyles Massyles Tripolitania Metagonia Muxsi Byzacium Musulamii
		unit merc libyan javelinmen,				exp 0 cost 7500  replenish 0.030 - 0.040 max 2 initial 2
		unit merc libyan javelinmen,				exp 2 cost 9000  replenish 0.020 - 0.030 max 1 initial 0
		unit merc numidian cavalry,					exp 0 cost 14000 replenish 0.035 - 0.055 max 2 initial 2
		unit merc numidian cavalry,					exp 2 cost 16000 replenish 0.025 - 0.035 max 1 initial 1
		unit merc caetrati cavalry,					exp 2 cost 14000 replenish 0.020 - 0.030 max 1 initial 0
		unit merc caetrati cavalry,					exp 0 cost 16000 replenish 0.040 - 0.060 max 1 initial 0
		unit merc libyan hoplites,					exp 0 cost 12000 replenish 0.030 - 0.040 max 2 initial 2
		unit merc libyan hoplites,					exp 2 cost 13000 replenish 0.020 - 0.030 max 1 initial 1
 
pool Africa_Carthage
	regions Zeugei 
		unit merc libyan javelinmen,				exp 0 cost 7500  replenish 0.030 - 0.040 max 2 initial 2
		unit merc libyan javelinmen,				exp 2 cost 9000  replenish 0.020 - 0.030 max 1 initial 0
		unit merc numidian cavalry,					exp 0 cost 14000 replenish 0.035 - 0.055 max 2 initial 2
		unit merc numidian cavalry,					exp 2 cost 16000 replenish 0.025 - 0.035 max 1 initial 1
		unit merc celtib scutarii,				      exp 0 cost 12000 replenish 0.030 - 0.040 max 1 initial 0
		unit merc celtib scutarii,				      exp 2 cost 13000 replenish 0.010 - 0.020 max 1 initial 0
		unit merc keltoi ambacti,				      	exp 2 cost 13000 replenish 0.015 - 0.020 max 1 initial 1
		unit merc keltoi light cavalry,		               	exp 0 cost 14000 replenish 0.020 - 0.035 max 1 initial 0
		unit merc keltoi light cavalry,		               	exp 2 cost 16000 replenish 0.020 - 0.025 max 1 initial 0
		unit merc keltoi swordsmen,				    	exp 2 cost 10000 replenish 0.020 - 0.030 max 1 initial 0
		unit merc keltoi swordsmen,				    	exp 0 cost 8500  replenish 0.020 - 0.030 max 1 initial 0
		unit merc keltoi heavy cavalry,		               	exp 2 cost 19000 replenish 0.015 - 0.020 max 1 initial 0
        unit aor ligurian warriors,				  	exp 0 cost 6500  replenish 0.040 - 0.070 max 2 initial 1
		unit aor ligurian warriors,				  	exp 1 cost 8000 replenish 0.020 - 0.030 max 1 initial 0
		unit merc ligurian swordsmen,				  	exp 0 cost 8500  replenish 0.030 - 0.050 max 2 initial 1
		unit merc ligurian swordsmen,				  	exp 2 cost 12000 replenish 0.020 - 0.030 max 1 initial 0
		unit merc caetrati falcata,				    	exp 0 cost 7500  replenish 0.020 - 0.040 max 1 initial 0
		unit merc scutarii falcata,				    	exp 2 cost 13000 replenish 0.025 - 0.030 max 1 initial 0
		unit merc caetrati falcata,				    	exp 2 cost 9000  replenish 0.030 - 0.040 max 2 initial 0
		unit merc scutarii falcata,				    	exp 0 cost 12000 replenish 0.035 - 0.055 max 1 initial 0
		unit merc caetrati cavalry,					exp 2 cost 14000 replenish 0.020 - 0.030 max 1 initial 0
		unit merc caetrati cavalry,					exp 0 cost 16000 replenish 0.040 - 0.060 max 1 initial 0
		unit merc phalangites,				        	exp 0 cost 11000 replenish 0.020 - 0.030 max 1 initial 0
		unit merc phalangites,				        	exp 2 cost 13000 replenish 0.030 - 0.040 max 2 initial 1
		unit merc greek peltastai,				     	exp 2 cost 9000  replenish 0.030 - 0.045 max 1 initial 0
		unit merc greek hoplites,				     	exp 2 cost 13000 replenish 0.020 - 0.040 max 2 initial 1
		unit merc libyan hoplites,					exp 0 cost 12000 replenish 0.030 - 0.040 max 2 initial 2
		unit merc libyan hoplites,					exp 2 cost 13000 replenish 0.020 - 0.030 max 1 initial 1
		unit merc greek thureophoroi,				  	exp 2 cost 10000 replenish 0.025 - 0.035 max 1 initial 1
		unit merc greek peltastai,				     	exp 0 cost 7500  replenish 0.040 - 0.060 max 1 initial 0
		unit merc greek hoplites,				     	exp 0 cost 12000 replenish 0.040 - 0.060 max 1 initial 1
		unit merc greek thureophoroi,				  	exp 0 cost 8500  replenish 0.035 - 0.055 max 1 initial 1

pool Gallic_Rhone_Valley
    regions Volcae_Arecomici Arverni Allobroges Helvetii Carnutes 
		unit merc keltoi ambacti,				      	exp 0 cost 11000 replenish 0.030 - 0.050 max 2 initial 1
		unit merc keltoi ambacti,				      	exp 2 cost 13000 replenish 0.025 - 0.035 max 1 initial 1 
		unit merc keltoi light cavalry,		               	exp 0 cost 14000 replenish 0.035 - 0.055 max 1 initial 1
		unit merc keltoi light cavalry,		               	exp 2 cost 16000 replenish 0.020 - 0.035 max 1 initial 1
		unit merc keltoi swordsmen,				    	exp 2 cost 10000 replenish 0.030 - 0.040 max 1 initial 1
		unit merc keltoi swordsmen,				    	exp 0 cost 8500  replenish 0.035 - 0.060 max 3 initial 1
		unit merc keltoi heavy cavalry,		               	exp 2 cost 19000 replenish 0.020 - 0.028 max 1 initial 1
		unit merc keltoi heavy cavalry,		               	exp 0 cost 16000 replenish 0.030 - 0.050 max 1 initial 1

pool Gallic_Alban
    regions Remi Bellovaci Nervii Treveria
		unit aor belgae swords,				      	exp 0 cost 11000 replenish 0.030 - 0.050 max 2 initial 1
		unit aor belgae swords,				      	exp 2 cost 13000 replenish 0.025 - 0.035 max 1 initial 1 
		unit merc keltoi light cavalry,		               	exp 0 cost 14000 replenish 0.035 - 0.055 max 1 initial 1
		unit merc keltoi light cavalry,		               	exp 2 cost 16000 replenish 0.020 - 0.035 max 1 initial 1
		unit merc keltoi swordsmen,				    	exp 2 cost 10000 replenish 0.030 - 0.040 max 1 initial 1
		unit merc keltoi swordsmen,				    	exp 0 cost 8500  replenish 0.035 - 0.060 max 3 initial 1
		unit merc keltoi heavy cavalry,		               	exp 2 cost 19000 replenish 0.020 - 0.028 max 1 initial 1
		unit merc keltoi heavy cavalry,		               	exp 0 cost 16000 replenish 0.030 - 0.038 max 1 initial 0
		unit aor german light cavalry,		               	exp 0 cost 14000 replenish 0.020 - 0.040 max 2 initial 1
		unit aor german light cavalry,		               	exp 2 cost 16000 replenish 0.020 - 0.035 max 1 initial 0
		unit aor german heavy cavalry,		              	exp 2 cost 19000 replenish 0.030 - 0.040 max 1 initial 1
		unit aor german swordsmen,				    	exp 2 cost 10000 replenish 0.035 - 0.055 max 2 initial 2
		unit aor german warband,				    	exp 2 cost 9000  replenish 0.025 - 0.045 max 2 initial 0
		unit aor german warband,				    	exp 0 cost 7500  replenish 0.035 - 0.055 max 3 initial 1
		unit aor german elite swordsmen,				exp 2 cost 13000 replenish 0.021 - 0.032 max 1 initial 1

pool Gallic_Aquitaine
    regions Tectosages Aquitani Lemovices Pictones
		unit merc keltoi ambacti,				      	exp 0 cost 11000 replenish 0.030 - 0.050 max 2 initial 1
		unit merc keltoi ambacti,				      	exp 2 cost 13000 replenish 0.025 - 0.035 max 1 initial 1 
		unit merc keltoi light cavalry,		               	exp 0 cost 14000 replenish 0.035 - 0.055 max 1 initial 1
		unit merc keltoi light cavalry,		               	exp 2 cost 16000 replenish 0.020 - 0.035 max 1 initial 1
		unit merc keltoi swordsmen,				    	exp 2 cost 10000 replenish 0.030 - 0.040 max 1 initial 1
		unit merc keltoi swordsmen,				    	exp 0 cost 8500  replenish 0.035 - 0.060 max 3 initial 1
		unit merc keltoi heavy cavalry,		               	exp 2 cost 19000 replenish 0.020 - 0.028 max 1 initial 1
		unit merc keltoi heavy cavalry,		               	exp 0 cost 16000 replenish 0.030 - 0.038 max 1 initial 0

pool Gallic_Cisalpine
    regions Insubres Ligures Veneti Noricum Gallia_Cispadana
		unit merc keltoi ambacti,				      	exp 0 cost 11000 replenish 0.030 - 0.050 max 2 initial 1
		unit merc keltoi ambacti,				      	exp 2 cost 13000 replenish 0.025 - 0.035 max 1 initial 1 
		unit Securigeri Rhaeti,				      	exp 0 cost 11000 replenish 0.030 - 0.050 max 2 initial 1
		unit Securigeri Rhaeti,				      	exp 2 cost 13000 replenish 0.025 - 0.035 max 1 initial 1
		unit merc keltoi light cavalry,		               	exp 0 cost 14000 replenish 0.035 - 0.055 max 1 initial 1
		unit merc keltoi light cavalry,		               	exp 2 cost 16000 replenish 0.020 - 0.035 max 1 initial 1
		unit merc keltoi swordsmen,				    	exp 2 cost 10000 replenish 0.030 - 0.040 max 1 initial 1
		unit merc keltoi swordsmen,				    	exp 0 cost 8500  replenish 0.035 - 0.060 max 3 initial 1
		unit merc keltoi heavy cavalry,		               	exp 2 cost 19000 replenish 0.020 - 0.028 max 1 initial 1
		unit merc keltoi heavy cavalry,		               	exp 0 cost 16000 replenish 0.030 - 0.038 max 1 initial 0
		unit merc ligurian swordsmen,				  	exp 0 cost 8500  replenish 0.030 - 0.050 max 2 initial 1
		unit merc ligurian swordsmen,				  	exp 2 cost 12000 replenish 0.020 - 0.030 max 1 initial 1

pool Greek_Epiros
    regions Chaonia
		unit merc greek hoplites,				     	exp 2 cost 13000  replenish 0.020 - 0.040 max 2 initial 1
		unit merc greek thureophoroi,				  	exp 0 cost 8500   replenish 0.025 - 0.035 max 1 initial 1
		unit merc greek peltastai,				     	exp 0 cost 7500   replenish 0.040 - 0.060 max 1 initial 0
		unit merc greek hoplites,				     	exp 2 cost 12000  replenish 0.040 - 0.060 max 1 initial 1
		unit merc illyrian light hoplitai,		             	exp 2 cost 8000   replenish 0.040 - 0.060 max 2 initial 1
		unit merc illyrian heavy peltastai,		            	exp 2 cost 10000  replenish 0.020 - 0.030 max 1 initial 1
		unit merc illyrian heavy peltastai,		            	exp 0 cost 8500   replenish 0.030 - 0.040 max 2 initial 1
		unit merc illyria light peltastai,		             	exp 0 cost 6500   replenish 0.035 - 0.055 max 2 initial 1
		unit merc illyria light peltastai,		             	exp 2 cost 8500   replenish 0.035 - 0.055 max 2 initial 1
       	        unit merc thracian cavalry,				    	exp 0 cost 14000  replenish 0.030 - 0.040 max 2 initial 1
		unit merc thracian cavalry,				    	exp 2 cost 16000  replenish 0.020 - 0.030 max 1 initial 1
		unit merc thrace peltasts,				 	exp 2 cost 9000   replenish 0.030 - 0.040 max 1 initial 0
		unit merc getai light cavalry,		            	exp 2 cost 16000  replenish 0.021 - 0.035 max 1 initial 1

pool Greek_Epiros
    regions Epiros Macedonia Edonia
       	        unit merc cretan archers,				 	exp 2 cost 10000  replenish 0.020 - 0.030 max 1 initial 1
		unit merc rhodian slingers,				 	exp 2 cost 9500   replenish 0.030 - 0.040 max 2 initial 1
		unit merc phalangites,				        	exp 0 cost 11000  replenish 0.020 - 0.030 max 1 initial 0
		unit merc phalangites,				        	exp 2 cost 13000  replenish 0.030 - 0.040 max 2 initial 1
		unit merc greek peltastai,				     	exp 2 cost 9000   replenish 0.030 - 0.045 max 1 initial 0
		unit merc greek hoplites,				     	exp 2 cost 13000  replenish 0.020 - 0.040 max 2 initial 1
		unit merc greek thureophoroi,				  	exp 0 cost 8500   replenish 0.025 - 0.035 max 1 initial 1
		unit merc greek peltastai,				     	exp 0 cost 7500   replenish 0.040 - 0.060 max 1 initial 0
		unit merc greek hoplites,				     	exp 2 cost 12000  replenish 0.040 - 0.060 max 1 initial 1
		unit merc greek thureophoroi,				  	exp 2 cost 10000  replenish 0.035 - 0.055 max 1 initial 1
		unit merc illyrian light hoplitai,		             	exp 2 cost 8000   replenish 0.040 - 0.060 max 2 initial 1
		unit merc illyrian heavy peltastai,		            	exp 2 cost 10000  replenish 0.020 - 0.030 max 1 initial 1
		unit merc illyrian heavy peltastai,		            	exp 0 cost 8500   replenish 0.030 - 0.040 max 2 initial 1
		unit merc illyria light peltastai,		             	exp 0 cost 6500   replenish 0.035 - 0.055 max 2 initial 1
       	        unit merc thracian cavalry,				    	exp 0 cost 14000  replenish 0.030 - 0.040 max 2 initial 1
		unit merc thracian cavalry,				    	exp 2 cost 16000  replenish 0.020 - 0.030 max 1 initial 1
		unit merc getai ramphoia swordsmen,		             exp 2 cost 13000  replenish 0.025 - 0.035 max 1 initial 0
		unit merc thessalian cavalry,				  	exp 2 cost 19000  replenish 0.020 - 0.030 max 1 initial 1
		unit merc greek armoured hoplite,		               exp 1 cost 16000  replenish 0.010 - 0.020 max 1 initial 1
		unit indian elephant,				  	        exp 2 cost 80000  replenish 0.010 - 00.02 max 1 initial 1

pool Greek_Ionia
    regions Karia Ionia Hellespontine_Phrygia Dodekanisa
		unit merc kilikes peiratai,					exp 2 cost 10000  replenish 0.030 - 0.040 max 1 initial 0
		unit merc kilikes euzono,				  	exp 2 cost 10000  replenish 0.035 - 0.055 max 1 initial 1
		unit merc kilikes peiratai,					exp 0 cost 8500   replenish 0.030 - 0.040 max 2 initial 1
		unit merc kilikes euzono,				  	exp 0 cost 8500   replenish 0.035 - 0.055 max 1 initial 1
       	        unit merc cretan archers,				 	exp 2 cost 10000  replenish 0.020 - 0.030 max 1 initial 1
		unit merc rhodian slingers,				 	exp 2 cost 9500   replenish 0.030 - 0.040 max 4 initial 2
		unit merc phalangites,				        	exp 0 cost 11000  replenish 0.020 - 0.030 max 1 initial 0
		unit merc phalangites,				        	exp 2 cost 13000  replenish 0.030 - 0.040 max 2 initial 1
		unit merc greek peltastai,				     	exp 2 cost 9000   replenish 0.030 - 0.045 max 1 initial 0
		unit merc greek hoplites,				     	exp 2 cost 13000  replenish 0.020 - 0.040 max 2 initial 1
		unit merc greek thureophoroi,				  	exp 0 cost 8500   replenish 0.025 - 0.035 max 1 initial 1
		unit merc greek peltastai,				     	exp 0 cost 7500   replenish 0.040 - 0.060 max 1 initial 0
		unit merc greek hoplites,				     	exp 2 cost 12000  replenish 0.040 - 0.060 max 1 initial 1
		unit merc greek thureophoroi,				  	exp 2 cost 10000  replenish 0.035 - 0.055 max 1 initial 1
		unit merc keltoi light cavalry,		               	exp 0 cost 14000  replenish 0.035 - 0.055 max 1 initial 1
		unit merc keltoi swordsmen,				    	exp 0 cost 8500   replenish 0.035 - 0.060 max 3 initial 1
		unit merc keltoi heavy cavalry,		               	exp 2 cost 19000  replenish 0.020 - 0.028 max 1 initial 1
		unit merc galatian infantry,				   	exp 2 cost 13000  replenish 0.025 - 0.035 max 1 initial 1
		unit merc keltoi slingers,				     	exp 0 cost 6500   replenish 0.040 - 0.060 max 1 initial 1

pool Greek_European_Greece
    regions Aetolia Phokis Euboia Attika
		unit merc cretan archers,				 	exp 2 cost 10000  replenish 0.020 - 0.030 max 1 initial 1
		unit merc rhodian slingers,				 	exp 2 cost 9500   replenish 0.030 - 0.040 max 1 initial 2
		unit merc phalangites,				        	exp 0 cost 11000  replenish 0.020 - 0.030 max 1 initial 0
		unit merc phalangites,				        	exp 2 cost 13000  replenish 0.030 - 0.040 max 2 initial 1
		unit merc greek peltastai,				     	exp 2 cost 9000   replenish 0.030 - 0.045 max 1 initial 0
		unit merc greek hoplites,				     	exp 2 cost 13000  replenish 0.020 - 0.040 max 2 initial 1
		unit merc greek thureophoroi,				  	exp 0 cost 8500   replenish 0.025 - 0.035 max 1 initial 1
		unit merc greek peltastai,				     	exp 0 cost 7500   replenish 0.040 - 0.060 max 1 initial 0
		unit merc greek hoplites,				     	exp 2 cost 12000  replenish 0.040 - 0.060 max 1 initial 1
		unit merc greek thureophoroi,				  	exp 2 cost 10000  replenish 0.035 - 0.055 max 1 initial 1
		unit merc keltoi light cavalry,		               	exp 0 cost 14000  replenish 0.035 - 0.055 max 1 initial 1
		unit merc keltoi swordsmen,				    	exp 0 cost 8500   replenish 0.035 - 0.060 max 3 initial 1
		unit merc keltoi heavy cavalry,		               	exp 2 cost 19000  replenish 0.020 - 0.028 max 1 initial 1
		unit merc galatian infantry,				   	exp 2 cost 13000  replenish 0.025 - 0.035 max 1 initial 0
		unit merc illyrian light hoplitai,		             	exp 2 cost 8000   replenish 0.040 - 0.060 max 1 initial 1
		unit merc illyrian heavy peltastai,		            	exp 2 cost 10000  replenish 0.020 - 0.030 max 1 initial 0
		unit merc illyrian heavy peltastai,		            	exp 0 cost 8500   replenish 0.030 - 0.040 max 1 initial 0
		unit merc illyria light peltastai,		             	exp 0 cost 6500   replenish 0.035 - 0.055 max 2 initial 1
		unit merc tarentine cavalry,				  	exp 0 cost 14000  replenish 0.040 - 0.060 max 2 initial 0
		unit merc greek armoured hoplite,		               exp 1 cost 16000  replenish 0.010 - 0.020 max 1 initial 1
		unit merc thessalian cavalry,				  	exp 2 cost 19000  replenish 0.020 - 0.030 max 1 initial 1

pool Greek_Peloponnese
    regions Korinthia Achaea Arkadia Alis Lakonia
		unit merc cretan archers,				 	exp 2 cost 10000  replenish 0.020 - 0.030 max 1 initial 1
		unit merc rhodian slingers,				 	exp 2 cost 9500   replenish 0.030 - 0.040 max 1 initial 2
		unit merc phalangites,				        	exp 0 cost 11000  replenish 0.020 - 0.030 max 1 initial 0
		unit merc phalangites,				        	exp 2 cost 13000  replenish 0.030 - 0.040 max 2 initial 1
		unit merc greek peltastai,				     	exp 2 cost 9000   replenish 0.030 - 0.045 max 1 initial 0
		unit merc greek hoplites,				     	exp 2 cost 13000  replenish 0.020 - 0.040 max 2 initial 1
		unit merc greek thureophoroi,				  	exp 0 cost 8500   replenish 0.025 - 0.035 max 1 initial 1
		unit merc greek peltastai,				     	exp 0 cost 7500   replenish 0.040 - 0.060 max 1 initial 0
		unit merc greek hoplites,				     	exp 2 cost 12000  replenish 0.040 - 0.060 max 1 initial 1
		unit merc greek thureophoroi,				  	exp 2 cost 10000  replenish 0.035 - 0.055 max 1 initial 1
		unit merc keltoi light cavalry,		               	exp 0 cost 14000  replenish 0.035 - 0.055 max 1 initial 1
		unit merc keltoi swordsmen,				    	exp 0 cost 8500   replenish 0.035 - 0.060 max 3 initial 1
		unit merc keltoi heavy cavalry,		               	exp 2 cost 19000  replenish 0.020 - 0.028 max 1 initial 1
		unit merc galatian infantry,				   	exp 2 cost 13000  replenish 0.025 - 0.035 max 1 initial 0
		unit merc illyrian light hoplitai,		             	exp 2 cost 8000   replenish 0.040 - 0.060 max 1 initial 1
		unit merc illyrian heavy peltastai,		            	exp 2 cost 10000  replenish 0.020 - 0.030 max 1 initial 0
		unit merc illyria light peltastai,		             	exp 0 cost 6500   replenish 0.035 - 0.055 max 2 initial 1
		unit merc getai ramphoia swordsmen,		             exp 2 cost 13000  replenish 0.025 - 0.035 max 1 initial 0
		unit merc thrace peltasts,				 	exp 2 cost 9000   replenish 0.030 - 0.040 max 1 initial 0
		unit merc getai light cavalry,		            	exp 2 cost 16000  replenish 0.021 - 0.035 max 1 initial 1
		unit merc thracian cavalry,				    	exp 0 cost 14000  replenish 0.030 - 0.040 max 2 initial 1
		unit merc tarentine cavalry,				  	exp 0 cost 14000  replenish 0.040 - 0.060 max 2 initial 0
		unit merc thessalian cavalry,				  	exp 2 cost 19000  replenish 0.020 - 0.030 max 1 initial 1
		unit merc greek armoured hoplite,		               exp 1 cost 16000  replenish 0.010 - 0.020 max 1 initial 1

pool Asia-Minor_Pontic
    regions Bithynia Herakleia_Pontike Lydia
		 unit merc pontic oreioi,				  	exp 0 cost 8500   replenish 0.035 - 0.055 max 2 initial 1
		 unit merc pontic oreioi,				  	exp 2 cost 10000  replenish 0.025 - 0.035 max 1 initial 1
		 unit merc phalangites,				        	exp 0 cost 11000  replenish 0.020 - 0.030 max 1 initial 0
		 unit merc phalangites,				        	exp 2 cost 13000  replenish 0.030 - 0.040 max 2 initial 1
		 unit merc greek thureophoroi,				  exp 0 cost 8500   replenish 0.025 - 0.035 max 1 initial 1
		 unit merc greek thureophoroi,				  exp 2 cost 10000  replenish 0.035 - 0.055 max 1 initial 1
		 unit merc keltoi light cavalry,		               	exp 0 cost 14000  replenish 0.035 - 0.055 max 1 initial 1
		 unit merc keltoi swordsmen,				    exp 0 cost 8500   replenish 0.035 - 0.060 max 3 initial 1
		 unit merc keltoi heavy cavalry,		               	exp 2 cost 19000  replenish 0.020 - 0.028 max 1 initial 1
		 unit merc galatian infantry,				   exp 2 cost 13000  replenish 0.025 - 0.035 max 1 initial 1
		 unit merc keltoi slingers,				     exp 0 cost 6500   replenish 0.040 - 0.060 max 1 initial 1
		 unit merc keltoi spearmen,				 	exp 2 cost 8500   replenish 0.035 - 0.055 max 1 initial 1 

pool Greek_Krete
    regions Krete
		unit merc cretan archers,				 	exp 2 cost 10000  replenish 0.020 - 0.030 max 2 initial 1
		unit merc cretan archers,				   	exp 0 cost 8000   replenish 0.030 - 0.040 max 3 initial 1
		unit merc greek peltastai,				     	exp 2 cost 9000   replenish 0.030 - 0.045 max 1 initial 0
		unit merc greek hoplites,				     	exp 2 cost 13000  replenish 0.020 - 0.040 max 2 initial 1
		unit merc greek thureophoroi,				  	exp 0 cost 8500   replenish 0.025 - 0.035 max 1 initial 1
		unit merc greek peltastai,				     	exp 0 cost 7500   replenish 0.040 - 0.060 max 1 initial 0
		unit merc greek hoplites,				     	exp 2 cost 12000  replenish 0.040 - 0.060 max 1 initial 1
		unit merc greek thureophoroi,				  	exp 2 cost 10000  replenish 0.035 - 0.055 max 1 initial 1

pool Greek_Macedonia
    regions Propontis Thrakipontika Paionia Thessalia Magnesia
		unit merc cretan archers,				 	exp 2 cost 10000  replenish 0.020 - 0.030 max 1 initial 1
		unit merc rhodian slingers,				 	exp 2 cost 9500   replenish 0.030 - 0.040 max 1 initial 2
		unit merc phalangites,				        	exp 0 cost 11000  replenish 0.020 - 0.030 max 3 initial 2
		unit merc phalangites,				        	exp 2 cost 13000  replenish 0.030 - 0.040 max 2 initial 1
		unit merc greek peltastai,				     	exp 2 cost 9000   replenish 0.030 - 0.045 max 1 initial 0
		unit merc greek hoplites,				     	exp 2 cost 13000  replenish 0.020 - 0.040 max 2 initial 1
		unit merc greek thureophoroi,				  	exp 0 cost 8500   replenish 0.025 - 0.035 max 1 initial 1
		unit merc greek peltastai,				     	exp 0 cost 7500   replenish 0.040 - 0.060 max 1 initial 0
		unit merc greek hoplites,				     	exp 2 cost 12000  replenish 0.040 - 0.060 max 1 initial 1
		unit merc greek thureophoroi,				  	exp 2 cost 10000  replenish 0.035 - 0.055 max 1 initial 1
		unit merc keltoi light cavalry,		               	exp 0 cost 14000  replenish 0.035 - 0.055 max 1 initial 1
		unit merc keltoi swordsmen,				    	exp 0 cost 8500   replenish 0.035 - 0.060 max 3 initial 1
		unit merc keltoi heavy cavalry,		               	exp 2 cost 19000  replenish 0.020 - 0.028 max 1 initial 1
		unit merc galatian infantry,				   	exp 2 cost 13000  replenish 0.025 - 0.035 max 1 initial 0
		unit merc illyrian light hoplitai,		             	exp 2 cost 8000   replenish 0.040 - 0.060 max 1 initial 1
		unit merc illyrian heavy peltastai,		            	exp 2 cost 10000  replenish 0.020 - 0.030 max 1 initial 0
		unit merc illyria light peltastai,		             	exp 0 cost 6500   replenish 0.035 - 0.055 max 2 initial 1
		unit merc getai ramphoia swordsmen,		             exp 2 cost 13000  replenish 0.025 - 0.035 max 1 initial 0
		unit merc thrace peltasts,				 	exp 2 cost 9000   replenish 0.030 - 0.040 max 1 initial 0
		unit merc getai light cavalry,		            	exp 2 cost 16000  replenish 0.021 - 0.035 max 1 initial 1
		unit merc thracian cavalry,				    	exp 0 cost 14000  replenish 0.030 - 0.040 max 2 initial 1
		unit merc tarentine cavalry,				  	exp 0 cost 14000  replenish 0.040 - 0.060 max 2 initial 0
		unit merc thessalian cavalry,				  	exp 2 cost 19000  replenish 0.020 - 0.030 max 3 initial 1

pool East_Keltoi
    regions Boii Nori Volcae Vindelici Hermunduri
		unit merc keltoi ambacti,				      	exp 0 cost 11000  replenish 0.030 - 0.050 max 2 initial 1
		unit merc keltoi ambacti,				      	exp 2 cost 13000  replenish 0.025 - 0.035 max 1 initial 1 
		unit merc keltoi light cavalry,		               	exp 0 cost 14000  replenish 0.035 - 0.055 max 1 initial 1
		unit merc keltoi light cavalry,		               	exp 2 cost 16000  replenish 0.020 - 0.035 max 1 initial 1
		unit merc keltoi swordsmen,				    	exp 2 cost 10000  replenish 0.030 - 0.040 max 1 initial 1
		unit merc keltoi swordsmen,				    	exp 0 cost 8500   replenish 0.035 - 0.060 max 3 initial 1
		unit merc keltoi heavy cavalry,		               	exp 2 cost 19000  replenish 0.020 - 0.028 max 1 initial 1
		unit merc keltoi heavy cavalry,		               	exp 0 cost 16000  replenish 0.030 - 0.038 max 1 initial 0
		unit aor german light cavalry,		               	exp 0 cost 14000 replenish 0.020 - 0.040 max 2 initial 1
		unit aor german heavy cavalry,		              	exp 2 cost 19000 replenish 0.030 - 0.040 max 1 initial 1
		unit aor german swordsmen,				    	exp 2 cost 10000 replenish 0.035 - 0.055 max 2 initial 2
		unit aor german warband,				    	exp 2 cost 9000  replenish 0.025 - 0.045 max 2 initial 0
		unit aor german warband,				    	exp 0 cost 7500  replenish 0.035 - 0.055 max 3 initial 1
		unit aor german elite swordsmen,				exp 2 cost 13000 replenish 0.021 - 0.032 max 1 initial 1
		
pool Gallic_Aedui
    regions Aedui Bituriges Mandubii Leuci Latobrigi 
		unit merc keltoi ambacti,				      	exp 0 cost 11000 replenish 0.030 - 0.050 max 2 initial 1
		unit merc keltoi ambacti,				      	exp 2 cost 13000 replenish 0.025 - 0.035 max 1 initial 1 
		unit merc keltoi light cavalry,		               	exp 0 cost 14000 replenish 0.035 - 0.055 max 1 initial 1
		unit merc keltoi light cavalry,		               	exp 2 cost 16000 replenish 0.020 - 0.035 max 1 initial 1
		unit merc keltoi swordsmen,				    	exp 2 cost 10000 replenish 0.030 - 0.040 max 1 initial 1
		unit merc keltoi swordsmen,				    	exp 0 cost 8500  replenish 0.035 - 0.060 max 3 initial 1
		unit merc keltoi heavy cavalry,		               	exp 2 cost 19000 replenish 0.020 - 0.028 max 1 initial 1
		unit merc keltoi heavy cavalry,		               	exp 0 cost 16000 replenish 0.030 - 0.038 max 1 initial 0
		unit aor german light cavalry,		               	exp 0 cost 14000 replenish 0.020 - 0.040 max 2 initial 1
		unit aor german heavy cavalry,		              	exp 2 cost 19000 replenish 0.030 - 0.040 max 1 initial 1
		unit aor german swordsmen,				    	exp 2 cost 10000 replenish 0.035 - 0.055 max 2 initial 2
		unit aor german warband,				    	exp 2 cost 9000  replenish 0.025 - 0.045 max 2 initial 0

pool Scordisci
    regions Scordisci
               unit merc illyrian light hoplitai,		             	exp 0 cost 6500  replenish 0.040 - 0.060 max 3 initial 1
               unit merc illyrian heavy peltastai,		            	exp 0 cost 13000 replenish 0.020 - 0.030 max 2 initial 0
	       unit merc illyria light peltastai,		             	exp 2 cost 7500  replenish 0.035 - 0.055 max 2 initial 1
               unit merc keltoi swordsmen,				    	exp 2 cost 10000 replenish 0.030 - 0.040 max 1 initial 1
               unit merc getai ramphoia swordsmen,		              exp 2 cost 13000 replenish 0.025 - 0.035 max 1 initial 0
               unit merc getai peltasts,				 	exp 2 cost 9000  replenish 0.030 - 0.040 max 1 initial 0
               unit merc getai light cavalry,		            	exp 2 cost 16000 replenish 0.021 - 0.035 max 1 initial 1
               unit merc keltoi light cavalry,		               	exp 0 cost 14000 replenish 0.035 - 0.055 max 1 initial 1
               unit merc keltoi spearmen,				 	exp 2 cost 8500  replenish 0.035 - 0.055 max 1 initial 1
               unit merc keltoi heavy cavalry,		               	exp 0 cost 16000 replenish 0.030 - 0.038 max 1 initial 0
               unit merc getai ramphoia swordsmen,		              exp 0 cost 10000 replenish 0.025 - 0.035 max 1 initial 0
	       unit merc thrace peltasts,		             	        exp 0 cost 7000  replenish 0.040 - 0.060 max 2 initial 1
	       unit merc thrace peltasts,		            	        exp 2 cost 9000 replenish 0.020 - 0.030 max 1 initial 0
               unit merc thracian cavalry,				    	exp 0 cost 13000 replenish 0.030 - 0.040 max 2 initial 1

pool Getae/Thracian
    regions Piephigi Treballi 
               unit merc dii swordsmen,				    	exp 2 cost 10000 replenish 0.030 - 0.040 max 1 initial 1
               unit merc dii swordsmen,				    	exp 0 cost 8500  replenish 0.035 - 0.060 max 3 initial 1
               unit merc getai peltasts,				    	exp 2 cost 9000 replenish 0.030 - 0.040 max 1 initial 1
               unit merc getai peltasts,				    	exp 0 cost 6500 replenish 0.035 - 0.060 max 3 initial 1
	       unit merc getai ramphoia swordsmen,		              exp 0 cost 10000 replenish 0.025 - 0.035 max 1 initial 0
	       unit merc thrace peltasts,		             	        exp 0 cost 7000  replenish 0.040 - 0.060 max 2 initial 1
	       unit merc thrace peltasts,		            	        exp 2 cost 9000 replenish 0.020 - 0.030 max 1 initial 0
               unit merc getai ramphoia swordsmen,		              exp 2 cost 13000 replenish 0.025 - 0.035 max 1 initial 1
               unit merc getai peltasts,				 	exp 2 cost 9000  replenish 0.030 - 0.040 max 3 initial 2
               unit merc getai light cavalry,		            	exp 2 cost 16000 replenish 0.021 - 0.035 max 1 initial 1
               unit merc getai light cavalry,		            	exp 0 cost 12000 replenish 0.021 - 0.035 max 1 initial 1
               unit merc thracian cavalry,				    	exp 0 cost 13000 replenish 0.030 - 0.040 max 2 initial 1
               unit merc thracian cavalry,				    	exp 2 cost 15000 replenish 0.030 - 0.040 max 2 initial 1

pool Thracian/Keltoi
     regions Thrake 
               unit merc dii swordsmen,				    	exp 2 cost 10000 replenish 0.030 - 0.040 max 1 initial 1
               unit merc dii swordsmen,				    	exp 0 cost 8500  replenish 0.035 - 0.060 max 3 initial 1
               unit merc keltoi swordsmen,				    	exp 2 cost 10000 replenish 0.030 - 0.040 max 1 initial 1
               unit merc keltoi swordsmen,				    	exp 0 cost 8500  replenish 0.035 - 0.060 max 3 initial 1
               unit merc getai ramphoia swordsmen,		              exp 2 cost 13000 replenish 0.025 - 0.035 max 1 initial 0
               unit merc getai peltasts,				 	exp 2 cost 9000  replenish 0.030 - 0.040 max 1 initial 0
               unit merc getai light cavalry,		            	exp 2 cost 16000 replenish 0.021 - 0.035 max 1 initial 1
               unit merc keltoi light cavalry,		               	exp 0 cost 14000 replenish 0.035 - 0.055 max 1 initial 1
               unit merc keltoi spearmen,				 	exp 2 cost 8500  replenish 0.035 - 0.055 max 1 initial 1
               unit merc keltoi heavy cavalry,		               	exp 0 cost 16000 replenish 0.030 - 0.038 max 1 initial 0
               unit merc getai ramphoia swordsmen,		              exp 0 cost 10000 replenish 0.025 - 0.035 max 1 initial 0
	       unit merc thrace peltasts,		             	        exp 0 cost 7000  replenish 0.040 - 0.060 max 2 initial 1
	       unit merc thrace peltasts,		            	        exp 2 cost 9000 replenish 0.020 - 0.030 max 1 initial 0
               unit merc getai ramphoia swordsmen,		              exp 2 cost 13000 replenish 0.025 - 0.035 max 1 initial 1
               unit merc thracian cavalry,				    	exp 0 cost 13000 replenish 0.030 - 0.040 max 2 initial 1
               unit merc thracian cavalry,				    	exp 2 cost 15000 replenish 0.030 - 0.040 max 2 initial 1
pool Bastarnae
      regions Bastarnae Caucoensi Borystene
               unit merc keltoi swordsmen,				    	exp 2 cost 10000 replenish 0.030 - 0.040 max 1 initial 1
               unit merc keltoi swordsmen,				    	exp 0 cost 8500  replenish 0.035 - 0.060 max 3 initial 1
               unit merc getai ramphoia swordsmen,		              exp 2 cost 13000 replenish 0.025 - 0.035 max 1 initial 0
               unit merc getai peltasts,				 	exp 2 cost 9000  replenish 0.030 - 0.040 max 1 initial 0
               unit merc getai light cavalry,		            	exp 2 cost 16000 replenish 0.021 - 0.035 max 1 initial 1
               unit merc keltoi light cavalry,		               	exp 0 cost 14000 replenish 0.035 - 0.055 max 1 initial 1
               unit merc keltoi spearmen,				 	exp 2 cost 8500  replenish 0.035 - 0.055 max 1 initial 1
               unit merc keltoi heavy cavalry,		               	exp 0 cost 16000 replenish 0.030 - 0.038 max 1 initial 0
	       unit aor german light cavalry,		               	exp 0 cost 14000 replenish 0.020 - 0.040 max 2 initial 1
	       unit merc scythian horse archers,		            	exp 2 cost 16000 replenish 0.021 - 0.035 max 1 initial 0
               unit merc scythian horse archers,		            	exp 0 cost 15000 replenish 0.021 - 0.035 max 1 initial 1
               unit merc bastarnae sworsdman,				   exp 2 cost 10000 replenish 0.030 - 0.040 max 1 initial 1
               unit merc bastarnae sworsdman,				   exp 0 cost 8500  replenish 0.035 - 0.060 max 3 initial 1

pool Getae
      regions Cotini Albocenses Dobroditia
              unit merc getai peltasts,				    	exp 2 cost 9000 replenish 0.030 - 0.040 max 1 initial 1
              unit merc getai peltasts,				    	exp 0 cost 6500 replenish 0.035 - 0.060 max 3 initial 1
              unit merc getai light cavalry,		            	exp 0 cost 12000 replenish 0.021 - 0.035 max 1 initial 1
              unit merc getai light cavalry,		            	exp 2 cost 14000 replenish 0.021 - 0.035 max 1 initial 1
              unit merc scythian horse archers,		            	exp 2 cost 16000 replenish 0.021 - 0.035 max 1 initial 0
              unit merc scythian horse archers,		            	exp 0 cost 15000 replenish 0.021 - 0.035 max 1 initial 1

pool Getea_Gallic 
    regions Ratacensi Ansamenses Eravisci Contensi Buridavensi
               unit merc keltoi swordsmen,				    	exp 2 cost 10000 replenish 0.030 - 0.040 max 1 initial 1
               unit merc keltoi swordsmen,				    	exp 0 cost 8500  replenish 0.035 - 0.060 max 3 initial 1
               unit merc getai peltasts,				    	exp 2 cost 9000 replenish 0.030 - 0.040 max 1 initial 1
               unit merc getai peltasts,				    	exp 0 cost 6500 replenish 0.035 - 0.060 max 3 initial 1
               unit merc getai light cavalry,		            	exp 0 cost 12000 replenish 0.021 - 0.035 max 1 initial 1
               unit merc getai light cavalry,		            	exp 2 cost 14000 replenish 0.021 - 0.035 max 1 initial 1
               unit merc keltoi light cavalry,		               	exp 0 cost 12000 replenish 0.035 - 0.055 max 1 initial 1
               unit merc keltoi light cavalry,		               	exp 2 cost 14000 replenish 0.025 - 0.045 max 1 initial 1
               unit merc keltoi spearmen,				 	exp 2 cost 8500  replenish 0.035 - 0.055 max 1 initial 1
               unit merc keltoi heavy cavalry,		               	exp 0 cost 16000 replenish 0.030 - 0.038 max 1 initial 0
               unit merc keltoi heavy cavalry,		               	exp 2 cost 18000 replenish 0.020 - 0.028 max 1 initial 0
               unit merc scythian horse archers,		            	exp 2 cost 16000 replenish 0.021 - 0.035 max 1 initial 0
               unit merc scythian horse archers,		            	exp 0 cost 15000 replenish 0.021 - 0.035 max 1 initial 1

pool Greek_Sicily_East
    regions Sikelia Ager_Fretensis Sikania
               unit merc cretan archers,				 	exp 2 cost 10000  replenish 0.020 - 0.030 max 1 initial 1
	       unit Lancearii Siculi,				    	exp 0 cost 6500   replenish 0.035 - 0.060 max 2 initial 1
	       unit Lancearii Siculi,				    	exp 1 cost 8500   replenish 0.025 - 0.040 max 1 initial 1
               unit merc rhodian slingers,				 	exp 2 cost 9500   replenish 0.030 - 0.040 max 1 initial 2
               unit merc phalangites,				        	exp 0 cost 11000  replenish 0.020 - 0.030 max 1 initial 2
	       unit merc greek peltastai,				     	exp 2 cost 9000   replenish 0.030 - 0.045 max 1 initial 0
	       unit merc greek hoplites,				     	exp 2 cost 13000  replenish 0.020 - 0.040 max 2 initial 1
               unit merc greek thureophoroi,				  	exp 0 cost 8500   replenish 0.025 - 0.035 max 2 initial 1
	       unit merc greek peltastai,				     	exp 0 cost 7500   replenish 0.040 - 0.060 max 1 initial 0
	       unit merc greek hoplites,				     	exp 2 cost 12000  replenish 0.040 - 0.060 max 1 initial 1
               unit merc greek thureophoroi,				  	exp 2 cost 10000  replenish 0.035 - 0.055 max 1 initial 1
               unit merc oscan infantry,				     	exp 0 cost 8500   replenish 0.025 - 0.045 max 1 initial 1
               unit merc oscan skirmishers,				  	exp 0 cost 7500   replenish 0.030 - 0.040 max 1 initial 0
               unit merc oscan cavalry,				      	exp 2 cost 16000  replenish 0.030 - 0.035 max 2 initial 1
               unit merc samnite milites,				    	exp 2 cost 10000  replenish 0.022 - 0.035 max 1 initial 1

pool Greek_Sicily_West
    regions Epikrateia Sicilia_Poeni
               unit merc nuragic archers,				 	exp 2 cost 10000  replenish 0.020 - 0.030 max 1 initial 1
               unit merc nuragic warriors,				 	exp 2 cost 9500   replenish 0.030 - 0.040 max 1 initial 2
               unit merc phalangites,				        	exp 0 cost 11000  replenish 0.020 - 0.030 max 1 initial 2
	       unit merc greek peltastai,				     	exp 2 cost 9000   replenish 0.030 - 0.045 max 1 initial 0
	       unit merc greek hoplites,				     	exp 2 cost 13000  replenish 0.020 - 0.040 max 2 initial 1
               unit merc greek thureophoroi,				  	exp 0 cost 8500   replenish 0.025 - 0.035 max 2 initial 1
	       unit merc greek peltastai,				     	exp 0 cost 7500   replenish 0.040 - 0.060 max 1 initial 0
	       unit merc greek hoplites,				     	exp 2 cost 12000  replenish 0.040 - 0.060 max 1 initial 1
               unit merc greek thureophoroi,				  	exp 2 cost 10000  replenish 0.035 - 0.055 max 1 initial 1
               unit Hoplites Elymi,				    	exp 0 cost 6500   replenish 0.035 - 0.060 max 2 initial 1
	       unit Hoplites Elymi,				    	exp 1 cost 8500   replenish 0.025 - 0.040 max 1 initial 1
               unit merc keltoi swordsmen,				     	exp 0 cost 8500   replenish 0.025 - 0.045 max 1 initial 1
               unit merc ligurian swordsmen,				    	exp 2 cost 10000  replenish 0.022 - 0.035 max 1 initial 1
               unit aor ligurian warriors,				    	exp 2 cost 8000  replenish 0.042 - 0.055 max 2 initial 1

pool Greek_Magna_Graecia
    regions Rhegium Apulia Bruttium Calabria 
               unit merc phalangites,				        	exp 0 cost 11000  replenish 0.020 - 0.030 max 1 initial 1
	       unit merc phalangites,				        	exp 2 cost 13000  replenish 0.030 - 0.040 max 1 initial 1
	       unit merc greek peltastai,				     	exp 2 cost 9000   replenish 0.030 - 0.045 max 1 initial 0
	       unit merc greek hoplites,				     	exp 2 cost 13000  replenish 0.020 - 0.040 max 2 initial 1
               unit merc greek thureophoroi,				  	exp 0 cost 8500   replenish 0.025 - 0.035 max 2 initial 1
	       unit merc greek peltastai,				     	exp 0 cost 7500   replenish 0.040 - 0.060 max 1 initial 0
	       unit merc greek hoplites,				     	exp 2 cost 12000  replenish 0.040 - 0.060 max 1 initial 1
               unit merc greek thureophoroi,				  	exp 2 cost 10000  replenish 0.035 - 0.055 max 1 initial 1
               unit merc oscan infantry,				     	exp 2 cost 10000  replenish 0.035 - 0.055 max 2 initial 1   
               unit merc oscan infantry,				     	exp 0 cost 8500   replenish 0.025 - 0.045 max 2 initial 1
               unit merc oscan skirmishers,				  	exp 0 cost 7500   replenish 0.030 - 0.040 max 2 initial 0
               unit merc oscan cavalry,				      	exp 2 cost 16000  replenish 0.030 - 0.055 max 2 initial 1
               unit merc samnite milites,				    	exp 2 cost 10000  replenish 0.022 - 0.035 max 1 initial 1
               unit merc samnite milites,				    	exp 0 cost 8500   replenish 0.032 - 0.045 max 2 initial 1

pool Italic_Latin
    regions Etruria Umbria   
               unit merc oscan infantry,				     	exp 0 cost 8500   replenish 0.025 - 0.045 max 1 initial 1
               unit merc oscan skirmishers,				  	exp 0 cost 7500   replenish 0.030 - 0.040 max 1 initial 0
               unit merc oscan cavalry,				      	exp 2 cost 16000  replenish 0.030 - 0.055 max 1 initial 1
               unit merc samnite milites,				    	exp 0 cost 8500   replenish 0.032 - 0.045 max 1 initial 1
               unit merc etruscan hoplites,				  	exp 2 cost 13000  replenish 0.035 - 0.055 max 2 initial 1
               unit merc etruscan hoplites,				  	exp 0 cost 10000  replenish 0.025 - 0.035 max 2 initial 1
               unit merc etruscan cavalry,				   	exp 0 cost 14000  replenish 0.035 - 0.045 max 1 initial 1
               unit merc etruscan cavalry,				   	exp 2 cost 16000  replenish 0.025 - 0.035 max 1 initial 1
       unit merc roman deserters,                                     exp 1 cost 9570 replenish 0.010 - 0.020 max 1 initial 0	restrict Slavs
       unit merc roman deserters,                                     exp 1 cost 9570 replenish 0.010 - 0.020 max 1 initial 0	restrict Epirus
       unit merc roman deserters,                                     exp 1 cost 9570 replenish 0.010 - 0.020 max 1 initial 0	restrict Carthage
       unit merc roman deserters,                                     exp 1 cost 9570 replenish 0.010 - 0.020 max 1 initial 0	restrict Numidia
       unit merc roman deserters,                                     exp 1 cost 9570 replenish 0.010 - 0.020 max 1 initial 0	restrict Greek_cities
       unit merc roman deserters,                                     exp 1 cost 9570 replenish 0.010 - 0.020 max 1 initial 0	restrict Mini_faction
       unit merc roman deserters,                                     exp 1 cost 9570 replenish 0.010 - 0.020 max 1 initial 0	restrict Counter_faction
       unit merc roman deserters,                                     exp 1 cost 9570 replenish 0.010 - 0.020 max 1 initial 0	restrict Seleucid
       unit merc roman deserters,                                     exp 1 cost 9570 replenish 0.010 - 0.020 max 1 initial 0	restrict Egypt
       unit merc roman deserters,                                     exp 1 cost 9570 replenish 0.010 - 0.020 max 1 initial 0	restrict Thrace


pool Illyrian
    regions Liburni Dalmatia Ardaioi Pannonia Dardania 
	       unit merc illyrian light hoplitai,		             	exp 0 cost 6500  replenish 0.040 - 0.060 max 3 initial 1
	       unit merc illyrian light hoplitai,		             	exp 2 cost 8000  replenish 0.040 - 0.060 max 2 initial 1
	       unit merc illyrian heavy peltastai,		            	exp 2 cost 10000 replenish 0.020 - 0.030 max 1 initial 0
               unit merc illyrian heavy peltastai,		            	exp 0 cost 13000 replenish 0.020 - 0.030 max 2 initial 0
	       unit merc illyria light peltastai,		             	exp 2 cost 7500  replenish 0.035 - 0.055 max 2 initial 1
               unit merc illyria light peltastai,		             	exp 0 cost 6500  replenish 0.035 - 0.055 max 2 initial 1
               unit merc getai ramphoia swordsmen,		              exp 2 cost 13000 replenish 0.025 - 0.035 max 1 initial 1
               unit merc thrace peltasts,				 	exp 2 cost 9000  replenish 0.030 - 0.040 max 1 initial 0
               unit merc thracian cavalry,				    	exp 0 cost 14000 replenish 0.030 - 0.040 max 2 initial 1

pool Italic_Oscan
    regions Campania Lucania Picenum Safinium
               unit merc oscan infantry,				     	exp 0 cost 8500   replenish 0.025 - 0.045 max 1 initial 1
               unit merc oscan skirmishers,				  	exp 0 cost 7500   replenish 0.030 - 0.040 max 1 initial 0
               unit merc oscan cavalry,				      	exp 2 cost 16000  replenish 0.030 - 0.055 max 1 initial 1
               unit merc samnite milites,				    	exp 0 cost 8500   replenish 0.032 - 0.045 max 1 initial 1
               unit merc campanian hoplites,				  	exp 2 cost 13000  replenish 0.035 - 0.055 max 2 initial 1
               unit merc campanian hoplites,				  	exp 0 cost 10000  replenish 0.025 - 0.035 max 2 initial 1
               unit merc campanian cavalry,				   	exp 0 cost 14000  replenish 0.035 - 0.045 max 1 initial 1
               unit merc campanian cavalry,				   	exp 2 cost 16000  replenish 0.025 - 0.035 max 1 initial 1
	       unit merc samnite milites,				    	exp 0 cost 9000   replenish 0.035 - 0.055 max 2 initial 1

pool Nuragic
    regions Sardinia
		unit merc nuragic archers,				     	exp 2 cost 7500 replenish 0.025 - 0.035 max 1 initial 1
		unit merc nuragic archers,				     	exp 0 cost 6500 replenish 0.035 - 0.040 max 2 initial 1
		unit merc nuragic warriors,				    	exp 2 cost 8000 replenish 0.030 - 0.040 max 1 initial 2
		unit merc nuragic warriors,				    	exp 0 cost 7000 replenish 0.030 - 0.040 max 3 initial 2
		unit merc ligurian swordsmen,				  	exp 0 cost 8500 replenish 0.030 - 0.045 max 1 initial 1

pool Spain_Castro
    regions Gallaeci Cantabri Astures
		unit merc celtib scutarii,				      exp 0 cost 12000 replenish 0.030 - 0.040 max 1 initial 1
		unit merc keltoi ambacti,				      	exp 2 cost 13000 replenish 0.015 - 0.020 max 1 initial 1
		unit merc keltoi light cavalry,		               	exp 0 cost 14000 replenish 0.020 - 0.035 max 1 initial 0
		unit merc keltoi light cavalry,		               	exp 2 cost 16000 replenish 0.020 - 0.025 max 1 initial 0
		unit merc keltoi swordsmen,				    	exp 2 cost 10000 replenish 0.020 - 0.030 max 1 initial 1
		unit merc keltoi swordsmen,				    	exp 0 cost 8500  replenish 0.020 - 0.030 max 1 initial 2
		unit merc keltoi heavy cavalry,		               	exp 2 cost 19000 replenish 0.015 - 0.020 max 1 initial 1

pool Spain_Celtiberia
    regions Celtiberi Vaccaei Carpetani Lusitani Vettones Celtici
		unit merc celtib scutarii,				      exp 0 cost 12000 replenish 0.030 - 0.040 max 3 initial 2
		unit merc celtib scutarii,				      exp 2 cost 13000 replenish 0.010 - 0.020 max 3 initial 1
		unit merc caetrati cavalry,					exp 2 cost 14000 replenish 0.020 - 0.030 max 1 initial 1
		unit merc caetrati cavalry,					exp 0 cost 16000 replenish 0.040 - 0.060 max 1 initial 1
		unit merc keltoi ambacti,				      	exp 2 cost 13000 replenish 0.015 - 0.020 max 1 initial 1
		unit merc keltoi light cavalry,		               	exp 0 cost 14000 replenish 0.020 - 0.035 max 1 initial 0
		unit merc keltoi swordsmen,				    	exp 0 cost 8500  replenish 0.020 - 0.030 max 1 initial 0
		unit merc keltoi heavy cavalry,		               	exp 2 cost 19000 replenish 0.015 - 0.020 max 1 initial 0
		unit merc cantabrian cavalry,					exp 2 cost 16000 replenish 0.020 - 0.030 max 1 initial 1
		unit merc cantabrian cavalry,					exp 0 cost 14000 replenish 0.030 - 0.050 max 2 initial 1
        
pool Spain_Iberian
    regions Baetica Bastuli Turdetani Bastetani Edetani
		unit merc celtib scutarii,				      exp 0 cost 12000 replenish 0.030 - 0.040 max 1 initial 0
		unit merc caetrati cavalry,					exp 2 cost 14000 replenish 0.020 - 0.030 max 1 initial 1
		unit merc caetrati cavalry,					exp 0 cost 16000 replenish 0.040 - 0.060 max 1 initial 1
		unit merc keltoi ambacti,				      	exp 2 cost 13000 replenish 0.015 - 0.020 max 1 initial 1
		unit merc keltoi light cavalry,		               	exp 0 cost 14000 replenish 0.020 - 0.035 max 1 initial 0
		unit merc keltoi swordsmen,				    	exp 0 cost 8500  replenish 0.020 - 0.030 max 1 initial 0
		unit merc keltoi heavy cavalry,		               	exp 2 cost 19000 replenish 0.015 - 0.020 max 1 initial 0
		unit merc cantabrian cavalry,					exp 2 cost 16000 replenish 0.020 - 0.030 max 1 initial 1
		unit merc cantabrian cavalry,					exp 0 cost 14000 replenish 0.030 - 0.050 max 2 initial 1
		unit merc iberian elite scutarii,		               exp 2 cost 13000 replenish 0.020 - 0.035 max 2 initial 1
		unit merc caetrati falcata,				    	exp 0 cost 7500  replenish 0.020 - 0.040 max 1 initial 1
		unit merc scutarii falcata,				    	exp 2 cost 13000 replenish 0.025 - 0.030 max 1 initial 1
		unit merc caetrati falcata,				    	exp 2 cost 9000  replenish 0.030 - 0.040 max 2 initial 1
		unit merc scutarii falcata,				    	exp 0 cost 12000 replenish 0.035 - 0.055 max 1 initial 1

pool Spain_Ebro
    regions Tarraco Indiketia Ilergetes Ilercavones
		unit merc celtib scutarii,				      exp 0 cost 12000 replenish 0.030 - 0.040 max 3 initial 2
		unit merc caetrati cavalry,					exp 2 cost 14000 replenish 0.020 - 0.030 max 1 initial 0
		unit merc caetrati cavalry,					exp 0 cost 16000 replenish 0.040 - 0.060 max 1 initial 0
		unit merc keltoi ambacti,				      	exp 2 cost 13000 replenish 0.015 - 0.020 max 1 initial 1
		unit merc keltoi light cavalry,		               	exp 0 cost 14000 replenish 0.020 - 0.035 max 1 initial 0
		unit merc keltoi swordsmen,				    	exp 0 cost 8500  replenish 0.020 - 0.030 max 1 initial 1
		unit merc keltoi heavy cavalry,		               	exp 2 cost 19000 replenish 0.015 - 0.020 max 1 initial 1
		unit merc cantabrian cavalry,					exp 2 cost 16000 replenish 0.020 - 0.030 max 1 initial 3
		unit merc cantabrian cavalry,					exp 0 cost 14000 replenish 0.030 - 0.050 max 2 initial 0
		unit merc iberian elite scutarii,		               exp 2 cost 13000 replenish 0.020 - 0.035 max 2 initial 1
		unit merc caetrati falcata,				    	exp 0 cost 7500  replenish 0.020 - 0.040 max 1 initial 0
		unit merc ilergetes scutarii,				   exp 2 cost 13000 replenish 0.025 - 0.030 max 1 initial 1
		unit merc caetrati falcata,				    	exp 2 cost 9000  replenish 0.030 - 0.040 max 2 initial 0
		unit merc ilergetes scutarii,				   exp 0 cost 12000 replenish 0.035 - 0.055 max 2 initial 2
		unit merc iberian scutarii cavalry,		             exp 2 cost 19000 replenish 0.020 - 0.035 max 1 initial 1

pool Spain_Baleares
     regions Baleares
		unit merc balearic slingers,				   	exp 2 cost 8500 replenish 0.020 - 0.030 max 2 initial 1
		unit merc balearic slingers,				   	exp 0 cost 6500 replenish 0.030 - 0.040 max 3 initial 2
		unit merc caetrati falcata,				    	exp 0 cost 7500  replenish 0.020 - 0.040 max 1 initial 0
		unit merc ilergetes scutarii,				   exp 2 cost 13000 replenish 0.025 - 0.030 max 1 initial 1
		unit merc caetrati falcata,				    	exp 2 cost 9000  replenish 0.030 - 0.040 max 2 initial 0
		unit merc ilergetes scutarii,				   exp 0 cost 12000 replenish 0.035 - 0.055 max 2 initial 2